%YAML 1.1
%TAG !u! tag:unity3d.com,2011:
--- !u!1 &2366656716772347367
GameObject:
  m_ObjectHideFlags: 0
  m_CorrespondingSourceObject: {fileID: 0}
  m_PrefabInstance: {fileID: 0}
  m_PrefabAsset: {fileID: 0}
  serializedVersion: 6
  m_Component:
  - component: {fileID: 392165513479096311}
  - component: {fileID: 919246929145109372}
  m_Layer: 31
  m_Name: OverworldMap
  m_TagString: Untagged
  m_Icon: {fileID: 0}
  m_NavMeshLayer: 0
  m_StaticEditorFlags: 0
  m_IsActive: 1
--- !u!4 &392165513479096311
Transform:
  m_ObjectHideFlags: 0
  m_CorrespondingSourceObject: {fileID: 0}
  m_PrefabInstance: {fileID: 0}
  m_PrefabAsset: {fileID: 0}
  m_GameObject: {fileID: 2366656716772347367}
  m_LocalRotation: {x: 0, y: 0, z: 0, w: 1}
  m_LocalPosition: {x: 0, y: 0, z: 0}
  m_LocalScale: {x: 1, y: 1, z: 1}
  m_Children:
  - {fileID: 8492839377748565590}
  m_Father: {fileID: 0}
  m_RootOrder: 0
  m_LocalEulerAnglesHint: {x: 0, y: 0, z: 0}
--- !u!156049354 &919246929145109372
Grid:
  m_ObjectHideFlags: 0
  m_CorrespondingSourceObject: {fileID: 0}
  m_PrefabInstance: {fileID: 0}
  m_PrefabAsset: {fileID: 0}
  m_GameObject: {fileID: 2366656716772347367}
  m_Enabled: 1
  m_CellSize: {x: 1, y: 1, z: 0}
  m_CellGap: {x: 0, y: 0, z: 0}
  m_CellLayout: 0
  m_CellSwizzle: 0
--- !u!1 &4570467504900443359
GameObject:
  m_ObjectHideFlags: 0
  m_CorrespondingSourceObject: {fileID: 0}
  m_PrefabInstance: {fileID: 0}
  m_PrefabAsset: {fileID: 0}
  serializedVersion: 6
  m_Component:
  - component: {fileID: 8492839377748565590}
  - component: {fileID: 1650089153012782368}
  - component: {fileID: 378979787993649995}
  m_Layer: 0
  m_Name: Layer1
  m_TagString: Untagged
  m_Icon: {fileID: 0}
  m_NavMeshLayer: 0
  m_StaticEditorFlags: 0
  m_IsActive: 1
--- !u!4 &8492839377748565590
Transform:
  m_ObjectHideFlags: 0
  m_CorrespondingSourceObject: {fileID: 0}
  m_PrefabInstance: {fileID: 0}
  m_PrefabAsset: {fileID: 0}
  m_GameObject: {fileID: 4570467504900443359}
  m_LocalRotation: {x: -0, y: -0, z: -0, w: 1}
  m_LocalPosition: {x: 0, y: 0, z: 0}
  m_LocalScale: {x: 1, y: 1, z: 1}
  m_Children: []
  m_Father: {fileID: 392165513479096311}
  m_RootOrder: 0
  m_LocalEulerAnglesHint: {x: 0, y: 0, z: 0}
--- !u!1839735485 &1650089153012782368
Tilemap:
  m_ObjectHideFlags: 0
  m_CorrespondingSourceObject: {fileID: 0}
  m_PrefabInstance: {fileID: 0}
  m_PrefabAsset: {fileID: 0}
  m_GameObject: {fileID: 4570467504900443359}
  m_Enabled: 1
  m_Tiles:
  - first: {x: -3, y: -8, z: 0}
    second:
      serializedVersion: 2
      m_TileIndex: 99
      m_TileSpriteIndex: 99
      m_TileMatrixIndex: 0
      m_TileColorIndex: 0
      m_TileObjectToInstantiateIndex: 65535
      dummyAlignment: 0
      m_AllTileFlags: 1073741825
  - first: {x: -2, y: -8, z: 0}
    second:
      serializedVersion: 2
      m_TileIndex: 100
      m_TileSpriteIndex: 100
      m_TileMatrixIndex: 0
      m_TileColorIndex: 0
      m_TileObjectToInstantiateIndex: 65535
      dummyAlignment: 0
      m_AllTileFlags: 1073741825
  - first: {x: -1, y: -8, z: 0}
    second:
      serializedVersion: 2
      m_TileIndex: 101
      m_TileSpriteIndex: 101
      m_TileMatrixIndex: 0
      m_TileColorIndex: 0
      m_TileObjectToInstantiateIndex: 65535
      dummyAlignment: 0
      m_AllTileFlags: 1073741825
  - first: {x: 0, y: -8, z: 0}
    second:
      serializedVersion: 2
      m_TileIndex: 102
      m_TileSpriteIndex: 102
      m_TileMatrixIndex: 0
      m_TileColorIndex: 0
      m_TileObjectToInstantiateIndex: 65535
      dummyAlignment: 0
      m_AllTileFlags: 1073741825
  - first: {x: 1, y: -8, z: 0}
    second:
      serializedVersion: 2
      m_TileIndex: 103
      m_TileSpriteIndex: 103
      m_TileMatrixIndex: 0
      m_TileColorIndex: 0
      m_TileObjectToInstantiateIndex: 65535
      dummyAlignment: 0
      m_AllTileFlags: 1073741825
  - first: {x: 2, y: -8, z: 0}
    second:
      serializedVersion: 2
      m_TileIndex: 104
      m_TileSpriteIndex: 104
      m_TileMatrixIndex: 0
      m_TileColorIndex: 0
      m_TileObjectToInstantiateIndex: 65535
      dummyAlignment: 0
      m_AllTileFlags: 1073741825
  - first: {x: 3, y: -8, z: 0}
    second:
      serializedVersion: 2
      m_TileIndex: 105
      m_TileSpriteIndex: 105
      m_TileMatrixIndex: 0
      m_TileColorIndex: 0
      m_TileObjectToInstantiateIndex: 65535
      dummyAlignment: 0
      m_AllTileFlags: 1073741825
  - first: {x: 4, y: -8, z: 0}
    second:
      serializedVersion: 2
      m_TileIndex: 106
      m_TileSpriteIndex: 106
      m_TileMatrixIndex: 0
      m_TileColorIndex: 0
      m_TileObjectToInstantiateIndex: 65535
      dummyAlignment: 0
      m_AllTileFlags: 1073741825
  - first: {x: 5, y: -8, z: 0}
    second:
      serializedVersion: 2
      m_TileIndex: 107
      m_TileSpriteIndex: 107
      m_TileMatrixIndex: 0
      m_TileColorIndex: 0
      m_TileObjectToInstantiateIndex: 65535
      dummyAlignment: 0
      m_AllTileFlags: 1073741825
  - first: {x: 6, y: -8, z: 0}
    second:
      serializedVersion: 2
      m_TileIndex: 108
      m_TileSpriteIndex: 108
      m_TileMatrixIndex: 0
      m_TileColorIndex: 0
      m_TileObjectToInstantiateIndex: 65535
      dummyAlignment: 0
      m_AllTileFlags: 1073741825
  - first: {x: 7, y: -8, z: 0}
    second:
      serializedVersion: 2
      m_TileIndex: 109
      m_TileSpriteIndex: 109
      m_TileMatrixIndex: 0
      m_TileColorIndex: 0
      m_TileObjectToInstantiateIndex: 65535
      dummyAlignment: 0
      m_AllTileFlags: 1073741825
  - first: {x: -3, y: -7, z: 0}
    second:
      serializedVersion: 2
      m_TileIndex: 88
      m_TileSpriteIndex: 88
      m_TileMatrixIndex: 0
      m_TileColorIndex: 0
      m_TileObjectToInstantiateIndex: 65535
      dummyAlignment: 0
      m_AllTileFlags: 1073741825
  - first: {x: -2, y: -7, z: 0}
    second:
      serializedVersion: 2
      m_TileIndex: 89
      m_TileSpriteIndex: 89
      m_TileMatrixIndex: 0
      m_TileColorIndex: 0
      m_TileObjectToInstantiateIndex: 65535
      dummyAlignment: 0
      m_AllTileFlags: 1073741825
  - first: {x: -1, y: -7, z: 0}
    second:
      serializedVersion: 2
      m_TileIndex: 90
      m_TileSpriteIndex: 90
      m_TileMatrixIndex: 0
      m_TileColorIndex: 0
      m_TileObjectToInstantiateIndex: 65535
      dummyAlignment: 0
      m_AllTileFlags: 1073741825
  - first: {x: 0, y: -7, z: 0}
    second:
      serializedVersion: 2
      m_TileIndex: 91
      m_TileSpriteIndex: 91
      m_TileMatrixIndex: 0
      m_TileColorIndex: 0
      m_TileObjectToInstantiateIndex: 65535
      dummyAlignment: 0
      m_AllTileFlags: 1073741825
  - first: {x: 1, y: -7, z: 0}
    second:
      serializedVersion: 2
      m_TileIndex: 92
      m_TileSpriteIndex: 92
      m_TileMatrixIndex: 0
      m_TileColorIndex: 0
      m_TileObjectToInstantiateIndex: 65535
      dummyAlignment: 0
      m_AllTileFlags: 1073741825
  - first: {x: 2, y: -7, z: 0}
    second:
      serializedVersion: 2
      m_TileIndex: 93
      m_TileSpriteIndex: 93
      m_TileMatrixIndex: 0
      m_TileColorIndex: 0
      m_TileObjectToInstantiateIndex: 65535
      dummyAlignment: 0
      m_AllTileFlags: 1073741825
  - first: {x: 3, y: -7, z: 0}
    second:
      serializedVersion: 2
      m_TileIndex: 94
      m_TileSpriteIndex: 94
      m_TileMatrixIndex: 0
      m_TileColorIndex: 0
      m_TileObjectToInstantiateIndex: 65535
      dummyAlignment: 0
      m_AllTileFlags: 1073741825
  - first: {x: 4, y: -7, z: 0}
    second:
      serializedVersion: 2
      m_TileIndex: 95
      m_TileSpriteIndex: 95
      m_TileMatrixIndex: 0
      m_TileColorIndex: 0
      m_TileObjectToInstantiateIndex: 65535
      dummyAlignment: 0
      m_AllTileFlags: 1073741825
  - first: {x: 5, y: -7, z: 0}
    second:
      serializedVersion: 2
      m_TileIndex: 96
      m_TileSpriteIndex: 96
      m_TileMatrixIndex: 0
      m_TileColorIndex: 0
      m_TileObjectToInstantiateIndex: 65535
      dummyAlignment: 0
      m_AllTileFlags: 1073741825
  - first: {x: 6, y: -7, z: 0}
    second:
      serializedVersion: 2
      m_TileIndex: 97
      m_TileSpriteIndex: 97
      m_TileMatrixIndex: 0
      m_TileColorIndex: 0
      m_TileObjectToInstantiateIndex: 65535
      dummyAlignment: 0
      m_AllTileFlags: 1073741825
  - first: {x: 7, y: -7, z: 0}
    second:
      serializedVersion: 2
      m_TileIndex: 98
      m_TileSpriteIndex: 98
      m_TileMatrixIndex: 0
      m_TileColorIndex: 0
      m_TileObjectToInstantiateIndex: 65535
      dummyAlignment: 0
      m_AllTileFlags: 1073741825
  - first: {x: -3, y: -6, z: 0}
    second:
      serializedVersion: 2
      m_TileIndex: 77
      m_TileSpriteIndex: 77
      m_TileMatrixIndex: 0
      m_TileColorIndex: 0
      m_TileObjectToInstantiateIndex: 65535
      dummyAlignment: 0
      m_AllTileFlags: 1073741825
  - first: {x: -2, y: -6, z: 0}
    second:
      serializedVersion: 2
      m_TileIndex: 78
      m_TileSpriteIndex: 78
      m_TileMatrixIndex: 0
      m_TileColorIndex: 0
      m_TileObjectToInstantiateIndex: 65535
      dummyAlignment: 0
      m_AllTileFlags: 1073741825
  - first: {x: -1, y: -6, z: 0}
    second:
      serializedVersion: 2
      m_TileIndex: 79
      m_TileSpriteIndex: 79
      m_TileMatrixIndex: 0
      m_TileColorIndex: 0
      m_TileObjectToInstantiateIndex: 65535
      dummyAlignment: 0
      m_AllTileFlags: 1073741825
  - first: {x: 0, y: -6, z: 0}
    second:
      serializedVersion: 2
      m_TileIndex: 80
      m_TileSpriteIndex: 80
      m_TileMatrixIndex: 0
      m_TileColorIndex: 0
      m_TileObjectToInstantiateIndex: 65535
      dummyAlignment: 0
      m_AllTileFlags: 1073741825
  - first: {x: 1, y: -6, z: 0}
    second:
      serializedVersion: 2
      m_TileIndex: 81
      m_TileSpriteIndex: 81
      m_TileMatrixIndex: 0
      m_TileColorIndex: 0
      m_TileObjectToInstantiateIndex: 65535
      dummyAlignment: 0
      m_AllTileFlags: 1073741825
  - first: {x: 2, y: -6, z: 0}
    second:
      serializedVersion: 2
      m_TileIndex: 82
      m_TileSpriteIndex: 82
      m_TileMatrixIndex: 0
      m_TileColorIndex: 0
      m_TileObjectToInstantiateIndex: 65535
      dummyAlignment: 0
      m_AllTileFlags: 1073741825
  - first: {x: 3, y: -6, z: 0}
    second:
      serializedVersion: 2
      m_TileIndex: 83
      m_TileSpriteIndex: 83
      m_TileMatrixIndex: 0
      m_TileColorIndex: 0
      m_TileObjectToInstantiateIndex: 65535
      dummyAlignment: 0
      m_AllTileFlags: 1073741825
  - first: {x: 4, y: -6, z: 0}
    second:
      serializedVersion: 2
      m_TileIndex: 84
      m_TileSpriteIndex: 84
      m_TileMatrixIndex: 0
      m_TileColorIndex: 0
      m_TileObjectToInstantiateIndex: 65535
      dummyAlignment: 0
      m_AllTileFlags: 1073741825
  - first: {x: 5, y: -6, z: 0}
    second:
      serializedVersion: 2
      m_TileIndex: 85
      m_TileSpriteIndex: 85
      m_TileMatrixIndex: 0
      m_TileColorIndex: 0
      m_TileObjectToInstantiateIndex: 65535
      dummyAlignment: 0
      m_AllTileFlags: 1073741825
  - first: {x: 6, y: -6, z: 0}
    second:
      serializedVersion: 2
      m_TileIndex: 86
      m_TileSpriteIndex: 86
      m_TileMatrixIndex: 0
      m_TileColorIndex: 0
      m_TileObjectToInstantiateIndex: 65535
      dummyAlignment: 0
      m_AllTileFlags: 1073741825
  - first: {x: 7, y: -6, z: 0}
    second:
      serializedVersion: 2
      m_TileIndex: 87
      m_TileSpriteIndex: 87
      m_TileMatrixIndex: 0
      m_TileColorIndex: 0
      m_TileObjectToInstantiateIndex: 65535
      dummyAlignment: 0
      m_AllTileFlags: 1073741825
  - first: {x: -3, y: -5, z: 0}
    second:
      serializedVersion: 2
      m_TileIndex: 66
      m_TileSpriteIndex: 66
      m_TileMatrixIndex: 0
      m_TileColorIndex: 0
      m_TileObjectToInstantiateIndex: 65535
      dummyAlignment: 0
      m_AllTileFlags: 1073741825
  - first: {x: -2, y: -5, z: 0}
    second:
      serializedVersion: 2
      m_TileIndex: 67
      m_TileSpriteIndex: 67
      m_TileMatrixIndex: 0
      m_TileColorIndex: 0
      m_TileObjectToInstantiateIndex: 65535
      dummyAlignment: 0
      m_AllTileFlags: 1073741825
  - first: {x: -1, y: -5, z: 0}
    second:
      serializedVersion: 2
      m_TileIndex: 68
      m_TileSpriteIndex: 68
      m_TileMatrixIndex: 0
      m_TileColorIndex: 0
      m_TileObjectToInstantiateIndex: 65535
      dummyAlignment: 0
      m_AllTileFlags: 1073741825
  - first: {x: 0, y: -5, z: 0}
    second:
      serializedVersion: 2
      m_TileIndex: 69
      m_TileSpriteIndex: 69
      m_TileMatrixIndex: 0
      m_TileColorIndex: 0
      m_TileObjectToInstantiateIndex: 65535
      dummyAlignment: 0
      m_AllTileFlags: 1073741825
  - first: {x: 1, y: -5, z: 0}
    second:
      serializedVersion: 2
      m_TileIndex: 70
      m_TileSpriteIndex: 70
      m_TileMatrixIndex: 0
      m_TileColorIndex: 0
      m_TileObjectToInstantiateIndex: 65535
      dummyAlignment: 0
      m_AllTileFlags: 1073741825
  - first: {x: 2, y: -5, z: 0}
    second:
      serializedVersion: 2
      m_TileIndex: 71
      m_TileSpriteIndex: 71
      m_TileMatrixIndex: 0
      m_TileColorIndex: 0
      m_TileObjectToInstantiateIndex: 65535
      dummyAlignment: 0
      m_AllTileFlags: 1073741825
  - first: {x: 3, y: -5, z: 0}
    second:
      serializedVersion: 2
      m_TileIndex: 72
      m_TileSpriteIndex: 72
      m_TileMatrixIndex: 0
      m_TileColorIndex: 0
      m_TileObjectToInstantiateIndex: 65535
      dummyAlignment: 0
      m_AllTileFlags: 1073741825
  - first: {x: 4, y: -5, z: 0}
    second:
      serializedVersion: 2
      m_TileIndex: 73
      m_TileSpriteIndex: 73
      m_TileMatrixIndex: 0
      m_TileColorIndex: 0
      m_TileObjectToInstantiateIndex: 65535
      dummyAlignment: 0
      m_AllTileFlags: 1073741825
  - first: {x: 5, y: -5, z: 0}
    second:
      serializedVersion: 2
      m_TileIndex: 74
      m_TileSpriteIndex: 74
      m_TileMatrixIndex: 0
      m_TileColorIndex: 0
      m_TileObjectToInstantiateIndex: 65535
      dummyAlignment: 0
      m_AllTileFlags: 1073741825
  - first: {x: 6, y: -5, z: 0}
    second:
      serializedVersion: 2
      m_TileIndex: 75
      m_TileSpriteIndex: 75
      m_TileMatrixIndex: 0
      m_TileColorIndex: 0
      m_TileObjectToInstantiateIndex: 65535
      dummyAlignment: 0
      m_AllTileFlags: 1073741825
  - first: {x: 7, y: -5, z: 0}
    second:
      serializedVersion: 2
      m_TileIndex: 76
      m_TileSpriteIndex: 76
      m_TileMatrixIndex: 0
      m_TileColorIndex: 0
      m_TileObjectToInstantiateIndex: 65535
      dummyAlignment: 0
      m_AllTileFlags: 1073741825
  - first: {x: -4, y: -4, z: 0}
    second:
      serializedVersion: 2
      m_TileIndex: 111
      m_TileSpriteIndex: 110
      m_TileMatrixIndex: 0
      m_TileColorIndex: 2
      m_TileObjectToInstantiateIndex: 65535
      dummyAlignment: 0
      m_AllTileFlags: 1073741825
  - first: {x: -3, y: -4, z: 0}
    second:
      serializedVersion: 2
      m_TileIndex: 55
      m_TileSpriteIndex: 55
      m_TileMatrixIndex: 0
      m_TileColorIndex: 0
      m_TileObjectToInstantiateIndex: 65535
      dummyAlignment: 0
      m_AllTileFlags: 1073741825
  - first: {x: -2, y: -4, z: 0}
    second:
      serializedVersion: 2
      m_TileIndex: 56
      m_TileSpriteIndex: 56
      m_TileMatrixIndex: 0
      m_TileColorIndex: 0
      m_TileObjectToInstantiateIndex: 65535
      dummyAlignment: 0
      m_AllTileFlags: 1073741825
  - first: {x: -1, y: -4, z: 0}
    second:
      serializedVersion: 2
      m_TileIndex: 57
      m_TileSpriteIndex: 57
      m_TileMatrixIndex: 0
      m_TileColorIndex: 0
      m_TileObjectToInstantiateIndex: 65535
      dummyAlignment: 0
      m_AllTileFlags: 1073741825
  - first: {x: 0, y: -4, z: 0}
    second:
      serializedVersion: 2
      m_TileIndex: 58
      m_TileSpriteIndex: 58
      m_TileMatrixIndex: 0
      m_TileColorIndex: 0
      m_TileObjectToInstantiateIndex: 65535
      dummyAlignment: 0
      m_AllTileFlags: 1073741825
  - first: {x: 1, y: -4, z: 0}
    second:
      serializedVersion: 2
      m_TileIndex: 59
      m_TileSpriteIndex: 59
      m_TileMatrixIndex: 0
      m_TileColorIndex: 0
      m_TileObjectToInstantiateIndex: 65535
      dummyAlignment: 0
      m_AllTileFlags: 1073741825
  - first: {x: 2, y: -4, z: 0}
    second:
      serializedVersion: 2
      m_TileIndex: 60
      m_TileSpriteIndex: 60
      m_TileMatrixIndex: 0
      m_TileColorIndex: 0
      m_TileObjectToInstantiateIndex: 65535
      dummyAlignment: 0
      m_AllTileFlags: 1073741825
  - first: {x: 3, y: -4, z: 0}
    second:
      serializedVersion: 2
      m_TileIndex: 61
      m_TileSpriteIndex: 61
      m_TileMatrixIndex: 0
      m_TileColorIndex: 0
      m_TileObjectToInstantiateIndex: 65535
      dummyAlignment: 0
      m_AllTileFlags: 1073741825
  - first: {x: 4, y: -4, z: 0}
    second:
      serializedVersion: 2
      m_TileIndex: 62
      m_TileSpriteIndex: 62
      m_TileMatrixIndex: 0
      m_TileColorIndex: 0
      m_TileObjectToInstantiateIndex: 65535
      dummyAlignment: 0
      m_AllTileFlags: 1073741825
  - first: {x: 5, y: -4, z: 0}
    second:
      serializedVersion: 2
      m_TileIndex: 63
      m_TileSpriteIndex: 63
      m_TileMatrixIndex: 0
      m_TileColorIndex: 0
      m_TileObjectToInstantiateIndex: 65535
      dummyAlignment: 0
      m_AllTileFlags: 1073741825
  - first: {x: 6, y: -4, z: 0}
    second:
      serializedVersion: 2
      m_TileIndex: 64
      m_TileSpriteIndex: 64
      m_TileMatrixIndex: 0
      m_TileColorIndex: 0
      m_TileObjectToInstantiateIndex: 65535
      dummyAlignment: 0
      m_AllTileFlags: 1073741825
  - first: {x: 7, y: -4, z: 0}
    second:
      serializedVersion: 2
      m_TileIndex: 65
      m_TileSpriteIndex: 65
      m_TileMatrixIndex: 0
      m_TileColorIndex: 0
      m_TileObjectToInstantiateIndex: 65535
      dummyAlignment: 0
      m_AllTileFlags: 1073741825
  - first: {x: -4, y: -3, z: 0}
    second:
      serializedVersion: 2
      m_TileIndex: 110
      m_TileSpriteIndex: 110
      m_TileMatrixIndex: 0
      m_TileColorIndex: 1
      m_TileObjectToInstantiateIndex: 65535
      dummyAlignment: 0
      m_AllTileFlags: 1073741825
  - first: {x: -3, y: -3, z: 0}
    second:
      serializedVersion: 2
      m_TileIndex: 44
      m_TileSpriteIndex: 44
      m_TileMatrixIndex: 0
      m_TileColorIndex: 0
      m_TileObjectToInstantiateIndex: 65535
      dummyAlignment: 0
      m_AllTileFlags: 1073741825
  - first: {x: -2, y: -3, z: 0}
    second:
      serializedVersion: 2
      m_TileIndex: 45
      m_TileSpriteIndex: 45
      m_TileMatrixIndex: 0
      m_TileColorIndex: 0
      m_TileObjectToInstantiateIndex: 65535
      dummyAlignment: 0
      m_AllTileFlags: 1073741825
  - first: {x: -1, y: -3, z: 0}
    second:
      serializedVersion: 2
      m_TileIndex: 46
      m_TileSpriteIndex: 46
      m_TileMatrixIndex: 0
      m_TileColorIndex: 0
      m_TileObjectToInstantiateIndex: 65535
      dummyAlignment: 0
      m_AllTileFlags: 1073741825
  - first: {x: 0, y: -3, z: 0}
    second:
      serializedVersion: 2
      m_TileIndex: 47
      m_TileSpriteIndex: 47
      m_TileMatrixIndex: 0
      m_TileColorIndex: 0
      m_TileObjectToInstantiateIndex: 65535
      dummyAlignment: 0
      m_AllTileFlags: 1073741825
  - first: {x: 1, y: -3, z: 0}
    second:
      serializedVersion: 2
      m_TileIndex: 48
      m_TileSpriteIndex: 48
      m_TileMatrixIndex: 0
      m_TileColorIndex: 0
      m_TileObjectToInstantiateIndex: 65535
      dummyAlignment: 0
      m_AllTileFlags: 1073741825
  - first: {x: 2, y: -3, z: 0}
    second:
      serializedVersion: 2
      m_TileIndex: 49
      m_TileSpriteIndex: 49
      m_TileMatrixIndex: 0
      m_TileColorIndex: 0
      m_TileObjectToInstantiateIndex: 65535
      dummyAlignment: 0
      m_AllTileFlags: 1073741825
  - first: {x: 3, y: -3, z: 0}
    second:
      serializedVersion: 2
      m_TileIndex: 50
      m_TileSpriteIndex: 50
      m_TileMatrixIndex: 0
      m_TileColorIndex: 0
      m_TileObjectToInstantiateIndex: 65535
      dummyAlignment: 0
      m_AllTileFlags: 1073741825
  - first: {x: 4, y: -3, z: 0}
    second:
      serializedVersion: 2
      m_TileIndex: 51
      m_TileSpriteIndex: 51
      m_TileMatrixIndex: 0
      m_TileColorIndex: 0
      m_TileObjectToInstantiateIndex: 65535
      dummyAlignment: 0
      m_AllTileFlags: 1073741825
  - first: {x: 5, y: -3, z: 0}
    second:
      serializedVersion: 2
      m_TileIndex: 52
      m_TileSpriteIndex: 52
      m_TileMatrixIndex: 0
      m_TileColorIndex: 0
      m_TileObjectToInstantiateIndex: 65535
      dummyAlignment: 0
      m_AllTileFlags: 1073741825
  - first: {x: 6, y: -3, z: 0}
    second:
      serializedVersion: 2
      m_TileIndex: 53
      m_TileSpriteIndex: 53
      m_TileMatrixIndex: 0
      m_TileColorIndex: 0
      m_TileObjectToInstantiateIndex: 65535
      dummyAlignment: 0
      m_AllTileFlags: 1073741825
  - first: {x: 7, y: -3, z: 0}
    second:
      serializedVersion: 2
      m_TileIndex: 54
      m_TileSpriteIndex: 54
      m_TileMatrixIndex: 0
      m_TileColorIndex: 0
      m_TileObjectToInstantiateIndex: 65535
      dummyAlignment: 0
      m_AllTileFlags: 1073741825
  - first: {x: -3, y: -2, z: 0}
    second:
      serializedVersion: 2
      m_TileIndex: 33
      m_TileSpriteIndex: 33
      m_TileMatrixIndex: 0
      m_TileColorIndex: 0
      m_TileObjectToInstantiateIndex: 65535
      dummyAlignment: 0
      m_AllTileFlags: 1073741825
  - first: {x: -2, y: -2, z: 0}
    second:
      serializedVersion: 2
      m_TileIndex: 34
      m_TileSpriteIndex: 34
      m_TileMatrixIndex: 0
      m_TileColorIndex: 0
      m_TileObjectToInstantiateIndex: 65535
      dummyAlignment: 0
      m_AllTileFlags: 1073741825
  - first: {x: -1, y: -2, z: 0}
    second:
      serializedVersion: 2
      m_TileIndex: 35
      m_TileSpriteIndex: 35
      m_TileMatrixIndex: 0
      m_TileColorIndex: 0
      m_TileObjectToInstantiateIndex: 65535
      dummyAlignment: 0
      m_AllTileFlags: 1073741825
  - first: {x: 0, y: -2, z: 0}
    second:
      serializedVersion: 2
      m_TileIndex: 36
      m_TileSpriteIndex: 36
      m_TileMatrixIndex: 0
      m_TileColorIndex: 0
      m_TileObjectToInstantiateIndex: 65535
      dummyAlignment: 0
      m_AllTileFlags: 1073741825
  - first: {x: 1, y: -2, z: 0}
    second:
      serializedVersion: 2
      m_TileIndex: 37
      m_TileSpriteIndex: 37
      m_TileMatrixIndex: 0
      m_TileColorIndex: 0
      m_TileObjectToInstantiateIndex: 65535
      dummyAlignment: 0
      m_AllTileFlags: 1073741825
  - first: {x: 2, y: -2, z: 0}
    second:
      serializedVersion: 2
      m_TileIndex: 38
      m_TileSpriteIndex: 38
      m_TileMatrixIndex: 0
      m_TileColorIndex: 0
      m_TileObjectToInstantiateIndex: 65535
      dummyAlignment: 0
      m_AllTileFlags: 1073741825
  - first: {x: 3, y: -2, z: 0}
    second:
      serializedVersion: 2
      m_TileIndex: 39
      m_TileSpriteIndex: 39
      m_TileMatrixIndex: 0
      m_TileColorIndex: 0
      m_TileObjectToInstantiateIndex: 65535
      dummyAlignment: 0
      m_AllTileFlags: 1073741825
  - first: {x: 4, y: -2, z: 0}
    second:
      serializedVersion: 2
      m_TileIndex: 40
      m_TileSpriteIndex: 40
      m_TileMatrixIndex: 0
      m_TileColorIndex: 0
      m_TileObjectToInstantiateIndex: 65535
      dummyAlignment: 0
      m_AllTileFlags: 1073741825
  - first: {x: 5, y: -2, z: 0}
    second:
      serializedVersion: 2
      m_TileIndex: 41
      m_TileSpriteIndex: 41
      m_TileMatrixIndex: 0
      m_TileColorIndex: 0
      m_TileObjectToInstantiateIndex: 65535
      dummyAlignment: 0
      m_AllTileFlags: 1073741825
  - first: {x: 6, y: -2, z: 0}
    second:
      serializedVersion: 2
      m_TileIndex: 42
      m_TileSpriteIndex: 42
      m_TileMatrixIndex: 0
      m_TileColorIndex: 0
      m_TileObjectToInstantiateIndex: 65535
      dummyAlignment: 0
      m_AllTileFlags: 1073741825
  - first: {x: 7, y: -2, z: 0}
    second:
      serializedVersion: 2
      m_TileIndex: 43
      m_TileSpriteIndex: 43
      m_TileMatrixIndex: 0
      m_TileColorIndex: 0
      m_TileObjectToInstantiateIndex: 65535
      dummyAlignment: 0
      m_AllTileFlags: 1073741825
  - first: {x: -3, y: -1, z: 0}
    second:
      serializedVersion: 2
      m_TileIndex: 22
      m_TileSpriteIndex: 22
      m_TileMatrixIndex: 0
      m_TileColorIndex: 0
      m_TileObjectToInstantiateIndex: 65535
      dummyAlignment: 0
      m_AllTileFlags: 1073741825
  - first: {x: -2, y: -1, z: 0}
    second:
      serializedVersion: 2
      m_TileIndex: 23
      m_TileSpriteIndex: 23
      m_TileMatrixIndex: 0
      m_TileColorIndex: 0
      m_TileObjectToInstantiateIndex: 65535
      dummyAlignment: 0
      m_AllTileFlags: 1073741825
  - first: {x: -1, y: -1, z: 0}
    second:
      serializedVersion: 2
      m_TileIndex: 24
      m_TileSpriteIndex: 24
      m_TileMatrixIndex: 0
      m_TileColorIndex: 0
      m_TileObjectToInstantiateIndex: 65535
      dummyAlignment: 0
      m_AllTileFlags: 1073741825
  - first: {x: 0, y: -1, z: 0}
    second:
      serializedVersion: 2
      m_TileIndex: 25
      m_TileSpriteIndex: 25
      m_TileMatrixIndex: 0
      m_TileColorIndex: 0
      m_TileObjectToInstantiateIndex: 65535
      dummyAlignment: 0
      m_AllTileFlags: 1073741825
  - first: {x: 1, y: -1, z: 0}
    second:
      serializedVersion: 2
      m_TileIndex: 26
      m_TileSpriteIndex: 26
      m_TileMatrixIndex: 0
      m_TileColorIndex: 0
      m_TileObjectToInstantiateIndex: 65535
      dummyAlignment: 0
      m_AllTileFlags: 1073741825
  - first: {x: 2, y: -1, z: 0}
    second:
      serializedVersion: 2
      m_TileIndex: 27
      m_TileSpriteIndex: 27
      m_TileMatrixIndex: 0
      m_TileColorIndex: 0
      m_TileObjectToInstantiateIndex: 65535
      dummyAlignment: 0
      m_AllTileFlags: 1073741825
  - first: {x: 3, y: -1, z: 0}
    second:
      serializedVersion: 2
      m_TileIndex: 28
      m_TileSpriteIndex: 28
      m_TileMatrixIndex: 0
      m_TileColorIndex: 0
      m_TileObjectToInstantiateIndex: 65535
      dummyAlignment: 0
      m_AllTileFlags: 1073741825
  - first: {x: 4, y: -1, z: 0}
    second:
      serializedVersion: 2
      m_TileIndex: 29
      m_TileSpriteIndex: 29
      m_TileMatrixIndex: 0
      m_TileColorIndex: 0
      m_TileObjectToInstantiateIndex: 65535
      dummyAlignment: 0
      m_AllTileFlags: 1073741825
  - first: {x: 5, y: -1, z: 0}
    second:
      serializedVersion: 2
      m_TileIndex: 30
      m_TileSpriteIndex: 30
      m_TileMatrixIndex: 0
      m_TileColorIndex: 0
      m_TileObjectToInstantiateIndex: 65535
      dummyAlignment: 0
      m_AllTileFlags: 1073741825
  - first: {x: 6, y: -1, z: 0}
    second:
      serializedVersion: 2
      m_TileIndex: 31
      m_TileSpriteIndex: 31
      m_TileMatrixIndex: 0
      m_TileColorIndex: 0
      m_TileObjectToInstantiateIndex: 65535
      dummyAlignment: 0
      m_AllTileFlags: 1073741825
  - first: {x: 7, y: -1, z: 0}
    second:
      serializedVersion: 2
      m_TileIndex: 32
      m_TileSpriteIndex: 32
      m_TileMatrixIndex: 0
      m_TileColorIndex: 0
      m_TileObjectToInstantiateIndex: 65535
      dummyAlignment: 0
      m_AllTileFlags: 1073741825
  - first: {x: -3, y: 0, z: 0}
    second:
      serializedVersion: 2
      m_TileIndex: 11
      m_TileSpriteIndex: 11
      m_TileMatrixIndex: 0
      m_TileColorIndex: 0
      m_TileObjectToInstantiateIndex: 65535
      dummyAlignment: 0
      m_AllTileFlags: 1073741825
  - first: {x: -2, y: 0, z: 0}
    second:
      serializedVersion: 2
      m_TileIndex: 12
      m_TileSpriteIndex: 12
      m_TileMatrixIndex: 0
      m_TileColorIndex: 0
      m_TileObjectToInstantiateIndex: 65535
      dummyAlignment: 0
      m_AllTileFlags: 1073741825
  - first: {x: -1, y: 0, z: 0}
    second:
      serializedVersion: 2
      m_TileIndex: 13
      m_TileSpriteIndex: 13
      m_TileMatrixIndex: 0
      m_TileColorIndex: 0
      m_TileObjectToInstantiateIndex: 65535
      dummyAlignment: 0
      m_AllTileFlags: 1073741825
  - first: {x: 0, y: 0, z: 0}
    second:
      serializedVersion: 2
      m_TileIndex: 14
      m_TileSpriteIndex: 14
      m_TileMatrixIndex: 0
      m_TileColorIndex: 0
      m_TileObjectToInstantiateIndex: 65535
      dummyAlignment: 0
      m_AllTileFlags: 1073741825
  - first: {x: 1, y: 0, z: 0}
    second:
      serializedVersion: 2
      m_TileIndex: 15
      m_TileSpriteIndex: 15
      m_TileMatrixIndex: 0
      m_TileColorIndex: 0
      m_TileObjectToInstantiateIndex: 65535
      dummyAlignment: 0
      m_AllTileFlags: 1073741825
  - first: {x: 2, y: 0, z: 0}
    second:
      serializedVersion: 2
      m_TileIndex: 16
      m_TileSpriteIndex: 16
      m_TileMatrixIndex: 0
      m_TileColorIndex: 0
      m_TileObjectToInstantiateIndex: 65535
      dummyAlignment: 0
      m_AllTileFlags: 1073741825
  - first: {x: 3, y: 0, z: 0}
    second:
      serializedVersion: 2
      m_TileIndex: 17
      m_TileSpriteIndex: 17
      m_TileMatrixIndex: 0
      m_TileColorIndex: 0
      m_TileObjectToInstantiateIndex: 65535
      dummyAlignment: 0
      m_AllTileFlags: 1073741825
  - first: {x: 4, y: 0, z: 0}
    second:
      serializedVersion: 2
      m_TileIndex: 18
      m_TileSpriteIndex: 18
      m_TileMatrixIndex: 0
      m_TileColorIndex: 0
      m_TileObjectToInstantiateIndex: 65535
      dummyAlignment: 0
      m_AllTileFlags: 1073741825
  - first: {x: 5, y: 0, z: 0}
    second:
      serializedVersion: 2
      m_TileIndex: 19
      m_TileSpriteIndex: 19
      m_TileMatrixIndex: 0
      m_TileColorIndex: 0
      m_TileObjectToInstantiateIndex: 65535
      dummyAlignment: 0
      m_AllTileFlags: 1073741825
  - first: {x: 6, y: 0, z: 0}
    second:
      serializedVersion: 2
      m_TileIndex: 20
      m_TileSpriteIndex: 20
      m_TileMatrixIndex: 0
      m_TileColorIndex: 0
      m_TileObjectToInstantiateIndex: 65535
      dummyAlignment: 0
      m_AllTileFlags: 1073741825
  - first: {x: 7, y: 0, z: 0}
    second:
      serializedVersion: 2
      m_TileIndex: 21
      m_TileSpriteIndex: 21
      m_TileMatrixIndex: 0
      m_TileColorIndex: 0
      m_TileObjectToInstantiateIndex: 65535
      dummyAlignment: 0
      m_AllTileFlags: 1073741825
  - first: {x: -3, y: 1, z: 0}
    second:
      serializedVersion: 2
      m_TileIndex: 0
      m_TileSpriteIndex: 0
      m_TileMatrixIndex: 0
      m_TileColorIndex: 0
      m_TileObjectToInstantiateIndex: 65535
      dummyAlignment: 0
      m_AllTileFlags: 1073741825
  - first: {x: -2, y: 1, z: 0}
    second:
      serializedVersion: 2
      m_TileIndex: 1
      m_TileSpriteIndex: 1
      m_TileMatrixIndex: 0
      m_TileColorIndex: 0
      m_TileObjectToInstantiateIndex: 65535
      dummyAlignment: 0
      m_AllTileFlags: 1073741825
  - first: {x: -1, y: 1, z: 0}
    second:
      serializedVersion: 2
      m_TileIndex: 2
      m_TileSpriteIndex: 2
      m_TileMatrixIndex: 0
      m_TileColorIndex: 0
      m_TileObjectToInstantiateIndex: 65535
      dummyAlignment: 0
      m_AllTileFlags: 1073741825
  - first: {x: 0, y: 1, z: 0}
    second:
      serializedVersion: 2
      m_TileIndex: 3
      m_TileSpriteIndex: 3
      m_TileMatrixIndex: 0
      m_TileColorIndex: 0
      m_TileObjectToInstantiateIndex: 65535
      dummyAlignment: 0
      m_AllTileFlags: 1073741825
  - first: {x: 1, y: 1, z: 0}
    second:
      serializedVersion: 2
      m_TileIndex: 4
      m_TileSpriteIndex: 4
      m_TileMatrixIndex: 0
      m_TileColorIndex: 0
      m_TileObjectToInstantiateIndex: 65535
      dummyAlignment: 0
      m_AllTileFlags: 1073741825
  - first: {x: 2, y: 1, z: 0}
    second:
      serializedVersion: 2
      m_TileIndex: 5
      m_TileSpriteIndex: 5
      m_TileMatrixIndex: 0
      m_TileColorIndex: 0
      m_TileObjectToInstantiateIndex: 65535
      dummyAlignment: 0
      m_AllTileFlags: 1073741825
  - first: {x: 3, y: 1, z: 0}
    second:
      serializedVersion: 2
      m_TileIndex: 6
      m_TileSpriteIndex: 6
      m_TileMatrixIndex: 0
      m_TileColorIndex: 0
      m_TileObjectToInstantiateIndex: 65535
      dummyAlignment: 0
      m_AllTileFlags: 1073741825
  - first: {x: 4, y: 1, z: 0}
    second:
      serializedVersion: 2
      m_TileIndex: 7
      m_TileSpriteIndex: 7
      m_TileMatrixIndex: 0
      m_TileColorIndex: 0
      m_TileObjectToInstantiateIndex: 65535
      dummyAlignment: 0
      m_AllTileFlags: 1073741825
  - first: {x: 5, y: 1, z: 0}
    second:
      serializedVersion: 2
      m_TileIndex: 8
      m_TileSpriteIndex: 8
      m_TileMatrixIndex: 0
      m_TileColorIndex: 0
      m_TileObjectToInstantiateIndex: 65535
      dummyAlignment: 0
      m_AllTileFlags: 1073741825
  - first: {x: 6, y: 1, z: 0}
    second:
      serializedVersion: 2
      m_TileIndex: 9
      m_TileSpriteIndex: 9
      m_TileMatrixIndex: 0
      m_TileColorIndex: 0
      m_TileObjectToInstantiateIndex: 65535
      dummyAlignment: 0
      m_AllTileFlags: 1073741825
  - first: {x: 7, y: 1, z: 0}
    second:
      serializedVersion: 2
      m_TileIndex: 10
      m_TileSpriteIndex: 10
      m_TileMatrixIndex: 0
      m_TileColorIndex: 0
      m_TileObjectToInstantiateIndex: 65535
      dummyAlignment: 0
      m_AllTileFlags: 1073741825
  m_AnimatedTiles: {}
  m_TileAssetArray:
  - m_RefCount: 1
    m_Data: {fileID: 11400000, guid: c5b92d89767214a458e4548e05fe79d6, type: 2}
  - m_RefCount: 1
    m_Data: {fileID: 11400000, guid: 603c0e6aec1134a449ae88823daff69a, type: 2}
  - m_RefCount: 1
    m_Data: {fileID: 11400000, guid: 6c7f91c79aa09af4bbd3a2fe5644aa61, type: 2}
  - m_RefCount: 1
    m_Data: {fileID: 11400000, guid: b2bf9b3a43c9592419b4ea5281623396, type: 2}
  - m_RefCount: 1
    m_Data: {fileID: 11400000, guid: 62f32a2f30f15f448923a4d0aece0801, type: 2}
  - m_RefCount: 1
    m_Data: {fileID: 11400000, guid: 15a9ecffabceb4247bfd36c8242d35f9, type: 2}
  - m_RefCount: 1
    m_Data: {fileID: 11400000, guid: e5d3be807529eed47975b687fc447fe4, type: 2}
  - m_RefCount: 1
    m_Data: {fileID: 11400000, guid: 1e3cb7ffb0d65ef4a94fd84c6de53802, type: 2}
  - m_RefCount: 1
    m_Data: {fileID: 11400000, guid: b86f8d72352f8854ea532d46f4818835, type: 2}
  - m_RefCount: 1
    m_Data: {fileID: 11400000, guid: d5dc5eadd1b728f4eabe701abeb1bca1, type: 2}
  - m_RefCount: 1
    m_Data: {fileID: 11400000, guid: e9331c2de8f81bd4b9318332428412f8, type: 2}
  - m_RefCount: 1
    m_Data: {fileID: 11400000, guid: 89be5a25d5c3bed4da7acbc9a4defeae, type: 2}
  - m_RefCount: 1
    m_Data: {fileID: 11400000, guid: efdead2f476b2b1458e5cd4f6a1d28cc, type: 2}
  - m_RefCount: 1
    m_Data: {fileID: 11400000, guid: c69859b3f2cb8a541a81b0d8032b1dbf, type: 2}
  - m_RefCount: 1
    m_Data: {fileID: 11400000, guid: fcb34ef23ab2467488776b52af73a73e, type: 2}
  - m_RefCount: 1
    m_Data: {fileID: 11400000, guid: ab564f2219257e8488bd48caadcce11d, type: 2}
  - m_RefCount: 1
    m_Data: {fileID: 11400000, guid: f9a6eef4fe00be74a9415076a376525e, type: 2}
  - m_RefCount: 1
    m_Data: {fileID: 11400000, guid: 82784679660e78849a3392a598765b44, type: 2}
  - m_RefCount: 1
    m_Data: {fileID: 11400000, guid: bc3e2a2a067ff19468686ea9dea2aa8a, type: 2}
  - m_RefCount: 1
    m_Data: {fileID: 11400000, guid: 9feaafded70cac5499ca0afa2fa3638e, type: 2}
  - m_RefCount: 1
    m_Data: {fileID: 11400000, guid: 683f119531bbfe24999e8a6e3d1a661b, type: 2}
  - m_RefCount: 1
    m_Data: {fileID: 11400000, guid: 68ead179928d2394793bb6f3f8583cc7, type: 2}
  - m_RefCount: 1
    m_Data: {fileID: 11400000, guid: bfb7dcfe6ea44db48a3e935141a6ebe9, type: 2}
  - m_RefCount: 1
    m_Data: {fileID: 11400000, guid: 3e9e63c34ef38c840900ed2c8b2cf1e5, type: 2}
  - m_RefCount: 1
    m_Data: {fileID: 11400000, guid: e75de1c686045104ebab73e44e2497d3, type: 2}
  - m_RefCount: 1
    m_Data: {fileID: 11400000, guid: 52c1f204cbff3be45a68f49b86c42907, type: 2}
  - m_RefCount: 1
    m_Data: {fileID: 11400000, guid: fc54849eb65a5014398c3818c6bc4bca, type: 2}
  - m_RefCount: 1
    m_Data: {fileID: 11400000, guid: 8a51111fd8be42c42899c780f4dc526c, type: 2}
  - m_RefCount: 1
    m_Data: {fileID: 11400000, guid: 76d795698196e5646893d3e23f170090, type: 2}
  - m_RefCount: 1
    m_Data: {fileID: 11400000, guid: f380f1e0bb8b51749bcea1382f83a7c2, type: 2}
  - m_RefCount: 1
    m_Data: {fileID: 11400000, guid: 5a7c49f3fa5168f4ba0e45a93dea9412, type: 2}
  - m_RefCount: 1
    m_Data: {fileID: 11400000, guid: 14070ba9da7ae544085c67e8d17e6a77, type: 2}
  - m_RefCount: 1
    m_Data: {fileID: 11400000, guid: b5758c43fbafa794f92f7bf5eb6a6c3d, type: 2}
  - m_RefCount: 1
    m_Data: {fileID: 11400000, guid: 1be30ddb5b2ec1d40a35f121412ea686, type: 2}
  - m_RefCount: 1
    m_Data: {fileID: 11400000, guid: fe9e1535b10855741bb19dc9346222b4, type: 2}
  - m_RefCount: 1
    m_Data: {fileID: 11400000, guid: cd4671aeff8cac4478deef3d0ba6415e, type: 2}
  - m_RefCount: 1
    m_Data: {fileID: 11400000, guid: f93521a3588b7b64194215e680b3aba8, type: 2}
  - m_RefCount: 1
    m_Data: {fileID: 11400000, guid: c9ba98aea9a90a84e84698502be1d956, type: 2}
  - m_RefCount: 1
    m_Data: {fileID: 11400000, guid: 86b1b552ec087144ca5870cdbd204a70, type: 2}
  - m_RefCount: 1
    m_Data: {fileID: 11400000, guid: 71f6e98485e2a92468ce8691af04a070, type: 2}
  - m_RefCount: 1
    m_Data: {fileID: 11400000, guid: 0de79066cf6e6cf4b8ccdcd92eac12f3, type: 2}
  - m_RefCount: 1
    m_Data: {fileID: 11400000, guid: 24b1e3aee80b00647974e7cb41d4b0c7, type: 2}
  - m_RefCount: 1
    m_Data: {fileID: 11400000, guid: e5a23d418965b8d4e924af7deeb33d3a, type: 2}
  - m_RefCount: 1
    m_Data: {fileID: 11400000, guid: a206d49adb8bef7468fd2e78d17ba40f, type: 2}
  - m_RefCount: 1
    m_Data: {fileID: 11400000, guid: 03e951d43a181a34e8260bcb1345b711, type: 2}
  - m_RefCount: 1
    m_Data: {fileID: 11400000, guid: 7b0dca9caaa89464d9d002aa51af5276, type: 2}
  - m_RefCount: 1
    m_Data: {fileID: 11400000, guid: 78c796ffc7fad8d469fe4b41ded2ec04, type: 2}
  - m_RefCount: 1
    m_Data: {fileID: 11400000, guid: 48d7b51da01e23d41ad4986c373f9f54, type: 2}
  - m_RefCount: 1
    m_Data: {fileID: 11400000, guid: 0568bf09b3da29042bea126da15dbce6, type: 2}
  - m_RefCount: 1
    m_Data: {fileID: 11400000, guid: 1b04fde3cbee3d044b68e95c80b61578, type: 2}
  - m_RefCount: 1
    m_Data: {fileID: 11400000, guid: 9ae00c48777e582458be8b29d4dc2455, type: 2}
  - m_RefCount: 1
    m_Data: {fileID: 11400000, guid: 89e43649b05c30a4a871533903511cf7, type: 2}
  - m_RefCount: 1
    m_Data: {fileID: 11400000, guid: 4ccb84698a1265a44b438e680cae881f, type: 2}
  - m_RefCount: 1
    m_Data: {fileID: 11400000, guid: 58d8fcd2b703b734a87cfb5b20330540, type: 2}
  - m_RefCount: 1
    m_Data: {fileID: 11400000, guid: 238a6729d9f3eeb4787c4f3efb8f2b14, type: 2}
  - m_RefCount: 1
    m_Data: {fileID: 11400000, guid: abe5e945b1bb47e4ab368de5d508c501, type: 2}
  - m_RefCount: 1
    m_Data: {fileID: 11400000, guid: 769e277ae4212b14cbd3ff2be26daeb8, type: 2}
  - m_RefCount: 1
    m_Data: {fileID: 11400000, guid: df741cae7428be4479bbc5275c741b35, type: 2}
  - m_RefCount: 1
    m_Data: {fileID: 11400000, guid: 973e52951799e66468759875fe9c3f9f, type: 2}
  - m_RefCount: 1
    m_Data: {fileID: 11400000, guid: b1e7be53e62b73e42ad11d46d4734b2a, type: 2}
  - m_RefCount: 1
    m_Data: {fileID: 11400000, guid: fa8286f8522da824a9c3ab09aa19cf52, type: 2}
  - m_RefCount: 1
    m_Data: {fileID: 11400000, guid: 441618a84860d474cb79715536557aef, type: 2}
  - m_RefCount: 1
    m_Data: {fileID: 11400000, guid: 3c266be976faadd469e53274fbb03b60, type: 2}
  - m_RefCount: 1
    m_Data: {fileID: 11400000, guid: 115ba3682396ee24d93e48186cc6b927, type: 2}
  - m_RefCount: 1
    m_Data: {fileID: 11400000, guid: ecf897b017cb44244a4f6e2fe98a4d6b, type: 2}
  - m_RefCount: 1
    m_Data: {fileID: 11400000, guid: db278d109d3b9374199a1641d3790239, type: 2}
  - m_RefCount: 1
    m_Data: {fileID: 11400000, guid: 29c433836c25e7545ad34a8f970175da, type: 2}
  - m_RefCount: 1
    m_Data: {fileID: 11400000, guid: c9c559c8047130f40a2fcaa7861581f4, type: 2}
  - m_RefCount: 1
    m_Data: {fileID: 11400000, guid: 37c556b2a95fff24690b38469e5ba82d, type: 2}
  - m_RefCount: 1
    m_Data: {fileID: 11400000, guid: 082c8d3ca42bcb941b5403bcd21e2d59, type: 2}
  - m_RefCount: 1
    m_Data: {fileID: 11400000, guid: 606086030855cc24d89a04e422372ed4, type: 2}
  - m_RefCount: 1
    m_Data: {fileID: 11400000, guid: bebc424612c99de469906d9fb1058f8c, type: 2}
  - m_RefCount: 1
    m_Data: {fileID: 11400000, guid: 859972aff9da6f24087a438720a8916e, type: 2}
  - m_RefCount: 1
    m_Data: {fileID: 11400000, guid: 158777ceeb931db4e9014adeafc4f30f, type: 2}
  - m_RefCount: 1
    m_Data: {fileID: 11400000, guid: 13eee3a5b502f8647a43209cda8b34ba, type: 2}
  - m_RefCount: 1
    m_Data: {fileID: 11400000, guid: d7735a5f3d933f649af5928a93197c32, type: 2}
  - m_RefCount: 1
    m_Data: {fileID: 11400000, guid: f7e3518515b4cd7409caf431c0683a91, type: 2}
  - m_RefCount: 1
    m_Data: {fileID: 11400000, guid: d028b493402d16e4b90bd122b284308c, type: 2}
  - m_RefCount: 1
    m_Data: {fileID: 11400000, guid: f31782df7a67aba4392a70ef2226bc38, type: 2}
  - m_RefCount: 1
    m_Data: {fileID: 11400000, guid: 0c15c691a1c0ceb4982f66971c4e3526, type: 2}
  - m_RefCount: 1
    m_Data: {fileID: 11400000, guid: 506099edbfedc5d42ae968e814c11115, type: 2}
  - m_RefCount: 1
    m_Data: {fileID: 11400000, guid: 9e2ef6cb7096b244f96e5f1351459909, type: 2}
  - m_RefCount: 1
    m_Data: {fileID: 11400000, guid: 3cc80d8d3fc80b944b0f104e5ea2aedf, type: 2}
  - m_RefCount: 1
    m_Data: {fileID: 11400000, guid: 34dda49a09cf98342bc0314f52c6629b, type: 2}
  - m_RefCount: 1
    m_Data: {fileID: 11400000, guid: d0a24a7ee09dafb4d8c277a07fcb1ff3, type: 2}
  - m_RefCount: 1
    m_Data: {fileID: 11400000, guid: fa598bbed1b7fae4fb2cc424c658d9ec, type: 2}
  - m_RefCount: 1
    m_Data: {fileID: 11400000, guid: 125e73ed70522ce44b88358593a2a8cd, type: 2}
  - m_RefCount: 1
    m_Data: {fileID: 11400000, guid: cc166a88980b45941b6aa3e21e142dab, type: 2}
  - m_RefCount: 1
    m_Data: {fileID: 11400000, guid: 2fa38c3b607e9c54cb46a9432281245c, type: 2}
  - m_RefCount: 1
    m_Data: {fileID: 11400000, guid: ea6812496fd4c06488e0a97b6e9c69c8, type: 2}
  - m_RefCount: 1
    m_Data: {fileID: 11400000, guid: 3237ff75bbbc35d4b85ef033330b19b3, type: 2}
  - m_RefCount: 1
    m_Data: {fileID: 11400000, guid: 373210da62bdd47478d43246ff72c9bc, type: 2}
  - m_RefCount: 1
    m_Data: {fileID: 11400000, guid: 4d59b1a0b190f454dbfc849909599011, type: 2}
  - m_RefCount: 1
    m_Data: {fileID: 11400000, guid: 40fcde698bbf0154daa6d88d38c5db5a, type: 2}
  - m_RefCount: 1
    m_Data: {fileID: 11400000, guid: 469364fd6b7c78441adcbe15d25d8ace, type: 2}
  - m_RefCount: 1
    m_Data: {fileID: 11400000, guid: c09bbc165ab1d7d449660d37813f60eb, type: 2}
  - m_RefCount: 1
    m_Data: {fileID: 11400000, guid: 844a96a3acfabae408d396a52fba1908, type: 2}
  - m_RefCount: 1
    m_Data: {fileID: 11400000, guid: eabe63e3f862ff34880ad9811660ac53, type: 2}
  - m_RefCount: 1
    m_Data: {fileID: 11400000, guid: d244423afefa4a84db717861b10b8a1a, type: 2}
  - m_RefCount: 1
    m_Data: {fileID: 11400000, guid: 43821c04730f4c74e98aacde32ac3282, type: 2}
  - m_RefCount: 1
    m_Data: {fileID: 11400000, guid: 0d2407e6c6c5c91489161f4b16e268cb, type: 2}
  - m_RefCount: 1
    m_Data: {fileID: 11400000, guid: 93233891e15d5fa4399554d18da09a70, type: 2}
  - m_RefCount: 1
    m_Data: {fileID: 11400000, guid: 9489252243da1e143881bb0619de8036, type: 2}
  - m_RefCount: 1
    m_Data: {fileID: 11400000, guid: f19bea6d804963b4395a066c0f236428, type: 2}
  - m_RefCount: 1
    m_Data: {fileID: 11400000, guid: 8be131203f2e72544b606f3ee69bfe28, type: 2}
  - m_RefCount: 1
    m_Data: {fileID: 11400000, guid: c01358dcfc7fffc46bf5b32cc8a4a168, type: 2}
  - m_RefCount: 1
    m_Data: {fileID: 11400000, guid: 34ec40b9448a51e48b6cb8c8c318ae15, type: 2}
  - m_RefCount: 1
    m_Data: {fileID: 11400000, guid: c73d10dfaba069c4e868d088c262e668, type: 2}
  - m_RefCount: 1
    m_Data: {fileID: 11400000, guid: 918bd6a105fa6c44195e189b1de201bc, type: 2}
  - m_RefCount: 1
    m_Data: {fileID: 11400000, guid: 321dcb4433247934dacb2e6d06307820, type: 2}
  - m_RefCount: 1
    m_Data: {fileID: 11400000, guid: d4011468db1d47d49bb69489c1f91bf6, type: 2}
  - m_RefCount: 1
    m_Data: {fileID: 11400000, guid: d80c975302642e4439aee32691f74847, type: 2}
  m_TileSpriteArray:
  - m_RefCount: 1
    m_Data: {fileID: 2083296275583963252, guid: 99e24e68285c51347b654c5a9d46ee4c, type: 3}
  - m_RefCount: 1
    m_Data: {fileID: -8198245366617647274, guid: 99e24e68285c51347b654c5a9d46ee4c, type: 3}
  - m_RefCount: 1
    m_Data: {fileID: -3744749443584030641, guid: 99e24e68285c51347b654c5a9d46ee4c, type: 3}
  - m_RefCount: 1
    m_Data: {fileID: -913787428666618969, guid: 99e24e68285c51347b654c5a9d46ee4c, type: 3}
  - m_RefCount: 1
    m_Data: {fileID: -5164089094017704773, guid: 99e24e68285c51347b654c5a9d46ee4c, type: 3}
  - m_RefCount: 1
    m_Data: {fileID: -834717504123683023, guid: 99e24e68285c51347b654c5a9d46ee4c, type: 3}
  - m_RefCount: 1
    m_Data: {fileID: 4990264658978878200, guid: 99e24e68285c51347b654c5a9d46ee4c, type: 3}
  - m_RefCount: 1
    m_Data: {fileID: 4241428154940196962, guid: 99e24e68285c51347b654c5a9d46ee4c, type: 3}
  - m_RefCount: 1
    m_Data: {fileID: -5253624870073421100, guid: 99e24e68285c51347b654c5a9d46ee4c, type: 3}
  - m_RefCount: 1
    m_Data: {fileID: 6302372223736536724, guid: 99e24e68285c51347b654c5a9d46ee4c, type: 3}
  - m_RefCount: 1
    m_Data: {fileID: -3841454433378352483, guid: 99e24e68285c51347b654c5a9d46ee4c, type: 3}
  - m_RefCount: 1
    m_Data: {fileID: -5670409844715406520, guid: 99e24e68285c51347b654c5a9d46ee4c, type: 3}
  - m_RefCount: 1
    m_Data: {fileID: 1249251024019367348, guid: 99e24e68285c51347b654c5a9d46ee4c, type: 3}
  - m_RefCount: 1
    m_Data: {fileID: -5869672377748937533, guid: 99e24e68285c51347b654c5a9d46ee4c, type: 3}
  - m_RefCount: 1
    m_Data: {fileID: 2917667615975249633, guid: 99e24e68285c51347b654c5a9d46ee4c, type: 3}
  - m_RefCount: 1
    m_Data: {fileID: -8103765487264246228, guid: 99e24e68285c51347b654c5a9d46ee4c, type: 3}
  - m_RefCount: 1
    m_Data: {fileID: -412106385852028823, guid: 99e24e68285c51347b654c5a9d46ee4c, type: 3}
  - m_RefCount: 1
    m_Data: {fileID: 9088414776275213088, guid: 99e24e68285c51347b654c5a9d46ee4c, type: 3}
  - m_RefCount: 1
    m_Data: {fileID: 578950986925465012, guid: 99e24e68285c51347b654c5a9d46ee4c, type: 3}
  - m_RefCount: 1
    m_Data: {fileID: 633737737027290928, guid: 99e24e68285c51347b654c5a9d46ee4c, type: 3}
  - m_RefCount: 1
    m_Data: {fileID: 9221261302555660618, guid: 99e24e68285c51347b654c5a9d46ee4c, type: 3}
  - m_RefCount: 1
    m_Data: {fileID: -8963139467286116851, guid: 99e24e68285c51347b654c5a9d46ee4c, type: 3}
  - m_RefCount: 1
    m_Data: {fileID: 7236580883041939969, guid: 99e24e68285c51347b654c5a9d46ee4c, type: 3}
  - m_RefCount: 1
    m_Data: {fileID: 7600060720806791419, guid: 99e24e68285c51347b654c5a9d46ee4c, type: 3}
  - m_RefCount: 1
    m_Data: {fileID: 310981294991383724, guid: 99e24e68285c51347b654c5a9d46ee4c, type: 3}
  - m_RefCount: 1
    m_Data: {fileID: 5908589342568150215, guid: 99e24e68285c51347b654c5a9d46ee4c, type: 3}
  - m_RefCount: 1
    m_Data: {fileID: -5308123154521426961, guid: 99e24e68285c51347b654c5a9d46ee4c, type: 3}
  - m_RefCount: 1
    m_Data: {fileID: 214517754649757768, guid: 99e24e68285c51347b654c5a9d46ee4c, type: 3}
  - m_RefCount: 1
    m_Data: {fileID: -1100307685649760993, guid: 99e24e68285c51347b654c5a9d46ee4c, type: 3}
  - m_RefCount: 1
    m_Data: {fileID: 6336355016154414491, guid: 99e24e68285c51347b654c5a9d46ee4c, type: 3}
  - m_RefCount: 1
    m_Data: {fileID: 6655397947042547879, guid: 99e24e68285c51347b654c5a9d46ee4c, type: 3}
  - m_RefCount: 1
    m_Data: {fileID: -8687847129639815225, guid: 99e24e68285c51347b654c5a9d46ee4c, type: 3}
  - m_RefCount: 1
    m_Data: {fileID: 3422004618313368595, guid: 99e24e68285c51347b654c5a9d46ee4c, type: 3}
  - m_RefCount: 1
    m_Data: {fileID: -1886920399711639120, guid: 99e24e68285c51347b654c5a9d46ee4c, type: 3}
  - m_RefCount: 1
    m_Data: {fileID: 2387901865165085491, guid: 99e24e68285c51347b654c5a9d46ee4c, type: 3}
  - m_RefCount: 1
    m_Data: {fileID: -231184727992600745, guid: 99e24e68285c51347b654c5a9d46ee4c, type: 3}
  - m_RefCount: 1
    m_Data: {fileID: -4161728297035175320, guid: 99e24e68285c51347b654c5a9d46ee4c, type: 3}
  - m_RefCount: 1
    m_Data: {fileID: -110580302089901307, guid: 99e24e68285c51347b654c5a9d46ee4c, type: 3}
  - m_RefCount: 1
    m_Data: {fileID: 5928646400160885595, guid: 99e24e68285c51347b654c5a9d46ee4c, type: 3}
  - m_RefCount: 1
    m_Data: {fileID: -6851636260357715886, guid: 99e24e68285c51347b654c5a9d46ee4c, type: 3}
  - m_RefCount: 1
    m_Data: {fileID: 4809546700462502059, guid: 99e24e68285c51347b654c5a9d46ee4c, type: 3}
  - m_RefCount: 1
    m_Data: {fileID: 6148995556209550410, guid: 99e24e68285c51347b654c5a9d46ee4c, type: 3}
  - m_RefCount: 1
    m_Data: {fileID: 5672332460848940838, guid: 99e24e68285c51347b654c5a9d46ee4c, type: 3}
  - m_RefCount: 1
    m_Data: {fileID: -333593929786749253, guid: 99e24e68285c51347b654c5a9d46ee4c, type: 3}
  - m_RefCount: 1
    m_Data: {fileID: -4073370790835042543, guid: 99e24e68285c51347b654c5a9d46ee4c, type: 3}
  - m_RefCount: 1
    m_Data: {fileID: 6154476864151385285, guid: 99e24e68285c51347b654c5a9d46ee4c, type: 3}
  - m_RefCount: 1
    m_Data: {fileID: -1831273440751714720, guid: 99e24e68285c51347b654c5a9d46ee4c, type: 3}
  - m_RefCount: 1
    m_Data: {fileID: -5911014023470427402, guid: 99e24e68285c51347b654c5a9d46ee4c, type: 3}
  - m_RefCount: 1
    m_Data: {fileID: 3565170240348125186, guid: 99e24e68285c51347b654c5a9d46ee4c, type: 3}
  - m_RefCount: 1
    m_Data: {fileID: 1528020629966503729, guid: 99e24e68285c51347b654c5a9d46ee4c, type: 3}
  - m_RefCount: 1
    m_Data: {fileID: -3821049334858410700, guid: 99e24e68285c51347b654c5a9d46ee4c, type: 3}
  - m_RefCount: 1
    m_Data: {fileID: -8539600426520518700, guid: 99e24e68285c51347b654c5a9d46ee4c, type: 3}
  - m_RefCount: 1
    m_Data: {fileID: -2922817842620762071, guid: 99e24e68285c51347b654c5a9d46ee4c, type: 3}
  - m_RefCount: 1
    m_Data: {fileID: -3426195479028907569, guid: 99e24e68285c51347b654c5a9d46ee4c, type: 3}
  - m_RefCount: 1
    m_Data: {fileID: 599423864978011290, guid: 99e24e68285c51347b654c5a9d46ee4c, type: 3}
  - m_RefCount: 1
    m_Data: {fileID: 6298555033280024363, guid: 99e24e68285c51347b654c5a9d46ee4c, type: 3}
  - m_RefCount: 1
    m_Data: {fileID: 1870598120605844152, guid: 99e24e68285c51347b654c5a9d46ee4c, type: 3}
  - m_RefCount: 1
    m_Data: {fileID: 8586228580215600047, guid: 99e24e68285c51347b654c5a9d46ee4c, type: 3}
  - m_RefCount: 1
    m_Data: {fileID: 8420240357714250951, guid: 99e24e68285c51347b654c5a9d46ee4c, type: 3}
  - m_RefCount: 1
    m_Data: {fileID: -2261412378923695387, guid: 99e24e68285c51347b654c5a9d46ee4c, type: 3}
  - m_RefCount: 1
    m_Data: {fileID: -7189361060725010857, guid: 99e24e68285c51347b654c5a9d46ee4c, type: 3}
  - m_RefCount: 1
    m_Data: {fileID: 6058691313692724472, guid: 99e24e68285c51347b654c5a9d46ee4c, type: 3}
  - m_RefCount: 1
    m_Data: {fileID: -8625101802463544713, guid: 99e24e68285c51347b654c5a9d46ee4c, type: 3}
  - m_RefCount: 1
    m_Data: {fileID: -5733760590263852812, guid: 99e24e68285c51347b654c5a9d46ee4c, type: 3}
  - m_RefCount: 1
    m_Data: {fileID: -8864370220900572165, guid: 99e24e68285c51347b654c5a9d46ee4c, type: 3}
  - m_RefCount: 1
    m_Data: {fileID: 5015647293105679377, guid: 99e24e68285c51347b654c5a9d46ee4c, type: 3}
  - m_RefCount: 1
    m_Data: {fileID: 8118865573157681567, guid: 99e24e68285c51347b654c5a9d46ee4c, type: 3}
  - m_RefCount: 1
    m_Data: {fileID: 493680898488431072, guid: 99e24e68285c51347b654c5a9d46ee4c, type: 3}
  - m_RefCount: 1
    m_Data: {fileID: -3442381758154008427, guid: 99e24e68285c51347b654c5a9d46ee4c, type: 3}
  - m_RefCount: 1
    m_Data: {fileID: -7567987347484806040, guid: 99e24e68285c51347b654c5a9d46ee4c, type: 3}
  - m_RefCount: 1
    m_Data: {fileID: 3861474775641541508, guid: 99e24e68285c51347b654c5a9d46ee4c, type: 3}
  - m_RefCount: 1
    m_Data: {fileID: 374867673836921121, guid: 99e24e68285c51347b654c5a9d46ee4c, type: 3}
  - m_RefCount: 1
    m_Data: {fileID: -1673179277370682647, guid: 99e24e68285c51347b654c5a9d46ee4c, type: 3}
  - m_RefCount: 1
    m_Data: {fileID: 6946272494203081619, guid: 99e24e68285c51347b654c5a9d46ee4c, type: 3}
  - m_RefCount: 1
    m_Data: {fileID: -3160800967659469850, guid: 99e24e68285c51347b654c5a9d46ee4c, type: 3}
  - m_RefCount: 1
    m_Data: {fileID: 1855062322551916134, guid: 99e24e68285c51347b654c5a9d46ee4c, type: 3}
  - m_RefCount: 1
    m_Data: {fileID: -1847943325890115985, guid: 99e24e68285c51347b654c5a9d46ee4c, type: 3}
  - m_RefCount: 1
    m_Data: {fileID: -3215146763313547687, guid: 99e24e68285c51347b654c5a9d46ee4c, type: 3}
  - m_RefCount: 1
    m_Data: {fileID: -1700190559327260581, guid: 99e24e68285c51347b654c5a9d46ee4c, type: 3}
  - m_RefCount: 1
    m_Data: {fileID: -2063723533169969695, guid: 99e24e68285c51347b654c5a9d46ee4c, type: 3}
  - m_RefCount: 1
    m_Data: {fileID: 8382895030234214124, guid: 99e24e68285c51347b654c5a9d46ee4c, type: 3}
  - m_RefCount: 1
    m_Data: {fileID: 1623697916064568576, guid: 99e24e68285c51347b654c5a9d46ee4c, type: 3}
  - m_RefCount: 1
    m_Data: {fileID: 8037569840949473491, guid: 99e24e68285c51347b654c5a9d46ee4c, type: 3}
  - m_RefCount: 1
    m_Data: {fileID: -2439597371190597519, guid: 99e24e68285c51347b654c5a9d46ee4c, type: 3}
  - m_RefCount: 1
    m_Data: {fileID: 5435209221227485322, guid: 99e24e68285c51347b654c5a9d46ee4c, type: 3}
  - m_RefCount: 1
    m_Data: {fileID: -1062625542509309082, guid: 99e24e68285c51347b654c5a9d46ee4c, type: 3}
  - m_RefCount: 1
    m_Data: {fileID: 5344009389096488465, guid: 99e24e68285c51347b654c5a9d46ee4c, type: 3}
  - m_RefCount: 1
    m_Data: {fileID: 3976247718073665695, guid: 99e24e68285c51347b654c5a9d46ee4c, type: 3}
  - m_RefCount: 1
    m_Data: {fileID: -3122320248050155667, guid: 99e24e68285c51347b654c5a9d46ee4c, type: 3}
  - m_RefCount: 1
    m_Data: {fileID: 7388289614453339427, guid: 99e24e68285c51347b654c5a9d46ee4c, type: 3}
  - m_RefCount: 1
    m_Data: {fileID: 1156867423695120584, guid: 99e24e68285c51347b654c5a9d46ee4c, type: 3}
  - m_RefCount: 1
    m_Data: {fileID: -4277600782054053073, guid: 99e24e68285c51347b654c5a9d46ee4c, type: 3}
  - m_RefCount: 1
    m_Data: {fileID: -2622588370902321645, guid: 99e24e68285c51347b654c5a9d46ee4c, type: 3}
  - m_RefCount: 1
    m_Data: {fileID: -4235275185237407977, guid: 99e24e68285c51347b654c5a9d46ee4c, type: 3}
  - m_RefCount: 1
    m_Data: {fileID: 5451497727007438290, guid: 99e24e68285c51347b654c5a9d46ee4c, type: 3}
  - m_RefCount: 1
    m_Data: {fileID: -3540203567142043549, guid: 99e24e68285c51347b654c5a9d46ee4c, type: 3}
  - m_RefCount: 1
    m_Data: {fileID: -8497658061093509042, guid: 99e24e68285c51347b654c5a9d46ee4c, type: 3}
  - m_RefCount: 1
    m_Data: {fileID: -5644063795084311302, guid: 99e24e68285c51347b654c5a9d46ee4c, type: 3}
  - m_RefCount: 1
    m_Data: {fileID: 5666363667059661364, guid: 99e24e68285c51347b654c5a9d46ee4c, type: 3}
  - m_RefCount: 1
    m_Data: {fileID: -2903004191672512747, guid: 99e24e68285c51347b654c5a9d46ee4c, type: 3}
  - m_RefCount: 1
    m_Data: {fileID: 3580363747161588983, guid: 99e24e68285c51347b654c5a9d46ee4c, type: 3}
  - m_RefCount: 1
    m_Data: {fileID: -3891781312713035273, guid: 99e24e68285c51347b654c5a9d46ee4c, type: 3}
  - m_RefCount: 1
    m_Data: {fileID: -4242427847414131857, guid: 99e24e68285c51347b654c5a9d46ee4c, type: 3}
  - m_RefCount: 1
    m_Data: {fileID: -3549782942640246101, guid: 99e24e68285c51347b654c5a9d46ee4c, type: 3}
  - m_RefCount: 1
    m_Data: {fileID: 7104624570181250063, guid: 99e24e68285c51347b654c5a9d46ee4c, type: 3}
  - m_RefCount: 1
    m_Data: {fileID: -8761931859873438821, guid: 99e24e68285c51347b654c5a9d46ee4c, type: 3}
  - m_RefCount: 1
    m_Data: {fileID: -6550611807513833993, guid: 99e24e68285c51347b654c5a9d46ee4c, type: 3}
  - m_RefCount: 1
    m_Data: {fileID: -7885952995910383304, guid: 99e24e68285c51347b654c5a9d46ee4c, type: 3}
  - m_RefCount: 1
    m_Data: {fileID: -5922673865056652683, guid: 99e24e68285c51347b654c5a9d46ee4c, type: 3}
  - m_RefCount: 1
    m_Data: {fileID: -3295741406009070967, guid: 99e24e68285c51347b654c5a9d46ee4c, type: 3}
  - m_RefCount: 2
    m_Data: {fileID: 21300000, guid: 21fe0f31d3a0dd5439e95dc45e6141a7, type: 3}
  m_TileMatrixArray:
  - m_RefCount: 112
    m_Data:
      e00: 1
      e01: 0
      e02: 0
      e03: 0
      e10: 0
      e11: 1
      e12: 0
      e13: 0
      e20: 0
      e21: 0
      e22: 1
      e23: 0
      e30: 0
      e31: 0
      e32: 0
      e33: 1
  m_TileColorArray:
  - m_RefCount: 110
    m_Data: {r: 1, g: 1, b: 1, a: 1}
  - m_RefCount: 1
    m_Data: {r: 0, g: 0, b: 0, a: 1}
  - m_RefCount: 1
    m_Data: {r: 0, g: 0, b: 0, a: 0.69803923}
  m_TileObjectToInstantiateArray: []
  m_AnimationFrameRate: 1
  m_Color: {r: 1, g: 1, b: 1, a: 1}
  m_Origin: {x: -4, y: -8, z: 0}
  m_Size: {x: 12, y: 10, z: 1}
  m_TileAnchor: {x: 0.5, y: 0.5, z: 0}
  m_TileOrientation: 0
  m_TileOrientationMatrix:
    e00: 1
    e01: 0
    e02: 0
    e03: 0
    e10: 0
    e11: 1
    e12: 0
    e13: 0
    e20: 0
    e21: 0
    e22: 1
    e23: 0
    e30: 0
    e31: 0
    e32: 0
    e33: 1
--- !u!483693784 &378979787993649995
TilemapRenderer:
  m_ObjectHideFlags: 0
  m_CorrespondingSourceObject: {fileID: 0}
  m_PrefabInstance: {fileID: 0}
  m_PrefabAsset: {fileID: 0}
  m_GameObject: {fileID: 4570467504900443359}
  m_Enabled: 1
  m_CastShadows: 0
  m_ReceiveShadows: 0
  m_DynamicOccludee: 0
  m_MotionVectors: 1
  m_LightProbeUsage: 0
  m_ReflectionProbeUsage: 0
  m_RayTracingMode: 0
  m_RayTraceProcedural: 0
  m_RenderingLayerMask: 1
  m_RendererPriority: 0
  m_Materials:
  - {fileID: 10754, guid: 0000000000000000f000000000000000, type: 0}
  m_StaticBatchInfo:
    firstSubMesh: 0
    subMeshCount: 0
  m_StaticBatchRoot: {fileID: 0}
  m_ProbeAnchor: {fileID: 0}
  m_LightProbeVolumeOverride: {fileID: 0}
  m_ScaleInLightmap: 1
  m_ReceiveGI: 1
  m_PreserveUVs: 0
  m_IgnoreNormalsForChartDetection: 0
  m_ImportantGI: 0
  m_StitchLightmapSeams: 1
  m_SelectedEditorRenderState: 0
  m_MinimumChartSize: 4
  m_AutoUVMaxDistance: 0.5
  m_AutoUVMaxAngle: 89
  m_LightmapParameters: {fileID: 0}
  m_SortingLayerID: 0
  m_SortingLayer: 0
  m_SortingOrder: 0
  m_ChunkSize: {x: 32, y: 32, z: 32}
  m_ChunkCullingBounds: {x: 0, y: 0, z: 0}
  m_MaxChunkCount: 16
  m_MaxFrameAge: 16
  m_SortOrder: 0
  m_Mode: 0
  m_DetectChunkCullingBounds: 0
  m_MaskInteraction: 0
--- !u!114 &7244242576565758477
MonoBehaviour:
  m_ObjectHideFlags: 0
  m_CorrespondingSourceObject: {fileID: 0}
  m_PrefabInstance: {fileID: 0}
  m_PrefabAsset: {fileID: 0}
  m_GameObject: {fileID: 0}
  m_Enabled: 1
  m_EditorHideFlags: 0
  m_Script: {fileID: 12395, guid: 0000000000000000e000000000000000, type: 0}
  m_Name: Palette Settings
  m_EditorClassIdentifier: 
  cellSizing: 100
