%YAML 1.1
%TAG !u! tag:unity3d.com,2011:
--- !u!114 &11400000
MonoBehaviour:
  m_ObjectHideFlags: 0
  m_CorrespondingSourceObject: {fileID: 0}
  m_PrefabInstance: {fileID: 0}
  m_PrefabAsset: {fileID: 0}
  m_GameObject: {fileID: 0}
  m_Enabled: 1
  m_EditorHideFlags: 0
  m_Script: {fileID: 11500000, guid: 4c986955f841ae64199952c9b0b4458f, type: 3}
  m_Name: AssaultRifle
  m_EditorClassIdentifier: 
  weaponName: Assault Rifle
  damage: 3
  hit: 90
  rangeMin: 2
  rangeMax: 2
