{
    "name": "InputActionControlScheme",
    "maps": [
        {
            "name": "Roguelike",
            "id": "89522c18-e5ad-4f22-a708-e5ffce06bd06",
            "actions": [
                {
                    "name": "Up",
                    "type": "Button",
                    "id": "1bd0c34c-904b-4ecb-88e3-66cfe38601a3",
                    "expectedControlType": "Button",
                    "processors": "",
                    "interactions": ""
                },
                {
                    "name": "Down",
                    "type": "Button",
                    "id": "0538e372-e1ba-4fe1-a755-82aa6b9d36a9",
                    "expectedControlType": "Button",
                    "processors": "",
                    "interactions": ""
                },
                {
                    "name": "Left",
                    "type": "Button",
                    "id": "5fd3761d-dbdf-47f0-bc61-8fdce3165a02",
                    "expectedControlType": "Button",
                    "processors": "",
                    "interactions": ""
                },
                {
                    "name": "Right",
                    "type": "Button",
                    "id": "898630a7-2f86-4d45-8a49-0a0191b00cb8",
                    "expectedControlType": "Button",
                    "processors": "",
                    "interactions": ""
                },
                {
                    "name": "Escape",
                    "type": "Button",
                    "id": "fa4b5c5b-bfe8-4285-a232-69fd86e69d94",
                    "expectedControlType": "Button",
                    "processors": "",
                    "interactions": ""
                },
                {
                    "name": "Left Click",
                    "type": "Button",
                    "id": "828e503d-a8ae-4680-9da9-68099929bb17",
                    "expectedControlType": "Button",
                    "processors": "",
                    "interactions": ""
                },
                {
                    "name": "Right Click",
                    "type": "Button",
                    "id": "b4a5f2f3-6c44-4de1-a49f-6d90d659aa84",
                    "expectedControlType": "Button",
                    "processors": "",
                    "interactions": ""
                },
                {
                    "name": "Wait",
                    "type": "Button",
                    "id": "3d5f821c-090e-41d2-8aa5-b06dd0685581",
                    "expectedControlType": "Button",
                    "processors": "",
                    "interactions": ""
                },
                {
                    "name": "Confirm",
                    "type": "Button",
                    "id": "9a5018a8-4a58-4093-9971-0bfe5fb77d36",
                    "expectedControlType": "Button",
                    "processors": "",
                    "interactions": ""
                },
                {
                    "name": "Cancel",
                    "type": "Button",
                    "id": "3a66213d-2e33-4333-baf8-f88cdd699c7d",
                    "expectedControlType": "Button",
                    "processors": "",
                    "interactions": ""
                }
            ],
            "bindings": [
                {
                    "name": "",
                    "id": "08cff583-5fa8-4669-bf95-5ae901a58d93",
                    "path": "<Keyboard>/w",
                    "interactions": "",
                    "processors": "",
                    "groups": "Keyboard&Mouse",
                    "action": "Up",
                    "isComposite": false,
                    "isPartOfComposite": false
                },
                {
                    "name": "",
                    "id": "388624a4-91cc-41ea-9990-10c2c9f651ef",
                    "path": "<Keyboard>/upArrow",
                    "interactions": "",
                    "processors": "",
                    "groups": "Keyboard&Mouse",
                    "action": "Up",
                    "isComposite": false,
                    "isPartOfComposite": false
                },
                {
                    "name": "",
                    "id": "e74db3f5-3aca-4805-924a-04abdbf2a752",
                    "path": "<Gamepad>/leftStick/up",
                    "interactions": "",
                    "processors": "AxisDeadzone(min=0.4)",
                    "groups": "Gamepad",
                    "action": "Up",
                    "isComposite": false,
                    "isPartOfComposite": false
                },
                {
                    "name": "",
                    "id": "4cd6681c-ce94-4aa8-895e-f01f3d4f4331",
                    "path": "<Keyboard>/s",
                    "interactions": "",
                    "processors": "",
                    "groups": "Keyboard&Mouse",
                    "action": "Down",
                    "isComposite": false,
                    "isPartOfComposite": false
                },
                {
                    "name": "",
                    "id": "118350ed-6fa4-4941-89cb-c880e32b3647",
                    "path": "<Keyboard>/downArrow",
                    "interactions": "",
                    "processors": "",
                    "groups": "Keyboard&Mouse",
                    "action": "Down",
                    "isComposite": false,
                    "isPartOfComposite": false
                },
                {
                    "name": "",
                    "id": "b369ffdf-952b-403c-a56b-ee649a40c4cd",
                    "path": "<Gamepad>/leftStick/down",
                    "interactions": "",
                    "processors": "AxisDeadzone(min=0.4)",
                    "groups": "Gamepad",
                    "action": "Down",
                    "isComposite": false,
                    "isPartOfComposite": false
                },
                {
                    "name": "",
                    "id": "7d3eabe3-d5c1-4bc9-8f5b-f6822b729f41",
                    "path": "<Keyboard>/a",
                    "interactions": "",
                    "processors": "",
                    "groups": "Keyboard&Mouse",
                    "action": "Left",
                    "isComposite": false,
                    "isPartOfComposite": false
                },
                {
                    "name": "",
                    "id": "9483403d-8b5f-4bf4-8a3e-3a9c763a02c9",
                    "path": "<Keyboard>/leftArrow",
                    "interactions": "",
                    "processors": "",
                    "groups": "Keyboard&Mouse",
                    "action": "Left",
                    "isComposite": false,
                    "isPartOfComposite": false
                },
                {
                    "name": "",
                    "id": "6a7b4e0d-0a35-4edd-b8be-ea1735133d2b",
                    "path": "<Gamepad>/leftStick/left",
                    "interactions": "",
                    "processors": "AxisDeadzone(min=0.4)",
                    "groups": "Gamepad",
                    "action": "Left",
                    "isComposite": false,
                    "isPartOfComposite": false
                },
                {
                    "name": "",
                    "id": "d91be9ff-f392-4f7b-a0de-fee343075c18",
                    "path": "<Keyboard>/d",
                    "interactions": "",
                    "processors": "",
                    "groups": "Keyboard&Mouse",
                    "action": "Right",
                    "isComposite": false,
                    "isPartOfComposite": false
                },
                {
                    "name": "",
                    "id": "7bd6b786-fc9c-4645-a3aa-f346ade066b4",
                    "path": "<Keyboard>/rightArrow",
                    "interactions": "",
                    "processors": "",
                    "groups": "Keyboard&Mouse",
                    "action": "Right",
                    "isComposite": false,
                    "isPartOfComposite": false
                },
                {
                    "name": "",
                    "id": "2c607d85-4e3d-4ae0-b99d-a5e3e21b3f71",
                    "path": "<Gamepad>/leftStick/right",
                    "interactions": "",
                    "processors": "AxisDeadzone(min=0.4)",
                    "groups": "Gamepad",
                    "action": "Right",
                    "isComposite": false,
                    "isPartOfComposite": false
                },
                {
                    "name": "",
                    "id": "8ba947d4-52fd-4d57-b109-1f79db71334b",
                    "path": "<Keyboard>/escape",
                    "interactions": "",
                    "processors": "",
                    "groups": "Keyboard&Mouse",
                    "action": "Escape",
                    "isComposite": false,
                    "isPartOfComposite": false
                },
                {
                    "name": "",
                    "id": "b30b225f-b45e-4604-82ef-a8631024ca54",
                    "path": "<Mouse>/leftButton",
                    "interactions": "",
                    "processors": "",
                    "groups": "Keyboard&Mouse",
                    "action": "Left Click",
                    "isComposite": false,
                    "isPartOfComposite": false
                },
                {
                    "name": "",
                    "id": "dec7abd8-7dce-4034-b363-5485e8aadefb",
                    "path": "<Mouse>/rightButton",
                    "interactions": "",
                    "processors": "",
                    "groups": "Keyboard&Mouse",
                    "action": "Right Click",
                    "isComposite": false,
                    "isPartOfComposite": false
                },
                {
                    "name": "",
                    "id": "bf6b0e20-2e19-475c-b634-3134bae17d1b",
                    "path": "<Keyboard>/numpad5",
                    "interactions": "",
                    "processors": "",
                    "groups": "Keyboard&Mouse",
                    "action": "Wait",
                    "isComposite": false,
                    "isPartOfComposite": false
                },
                {
                    "name": "",
                    "id": "6765ddc7-6373-4061-8bfc-87e536a91bc2",
                    "path": "<Keyboard>/period",
                    "interactions": "",
                    "processors": "",
                    "groups": "Keyboard&Mouse",
                    "action": "Wait",
                    "isComposite": false,
                    "isPartOfComposite": false
                },
                {
                    "name": "",
                    "id": "ef3b007b-9a42-4430-ac87-a243e9639aa1",
                    "path": "<Mouse>/leftButton",
                    "interactions": "",
                    "processors": "",
                    "groups": "",
                    "action": "Confirm",
                    "isComposite": false,
                    "isPartOfComposite": false
                },
                {
                    "name": "",
                    "id": "c9ae2129-8453-492a-846e-b8dfd152df22",
                    "path": "<Keyboard>/f",
                    "interactions": "",
                    "processors": "",
                    "groups": "",
                    "action": "Confirm",
                    "isComposite": false,
                    "isPartOfComposite": false
                },
                {
                    "name": "",
                    "id": "d4f00992-28b9-45c3-9c83-4d42993bb966",
                    "path": "<Gamepad>/buttonSouth",
                    "interactions": "",
                    "processors": "",
                    "groups": "",
                    "action": "Confirm",
                    "isComposite": false,
                    "isPartOfComposite": false
                },
                {
                    "name": "",
                    "id": "d8b0832f-b5f4-4bb6-8eb9-98365f23a7c3",
                    "path": "<Mouse>/rightButton",
                    "interactions": "",
                    "processors": "",
                    "groups": "",
                    "action": "Cancel",
                    "isComposite": false,
                    "isPartOfComposite": false
                },
                {
                    "name": "",
                    "id": "cc75fc90-12ab-4564-8736-1b02cd6efbac",
                    "path": "<Keyboard>/g",
                    "interactions": "",
                    "processors": "",
                    "groups": "",
                    "action": "Cancel",
                    "isComposite": false,
                    "isPartOfComposite": false
                },
                {
                    "name": "",
                    "id": "77d7163a-b3c8-45c5-85f2-1ac3047ec6a6",
                    "path": "<Gamepad>/buttonEast",
                    "interactions": "",
                    "processors": "",
                    "groups": "",
                    "action": "Cancel",
                    "isComposite": false,
                    "isPartOfComposite": false
                }
            ]
        },
        {
            "name": "Player",
            "id": "345d946b-f96d-4e27-8d98-dad83385865a",
            "actions": [
                {
                    "name": "Move",
                    "type": "Value",
                    "id": "1a28359e-256f-4509-861d-ee73bae8073d",
                    "expectedControlType": "Vector2",
                    "processors": "",
                    "interactions": ""
                },
                {
                    "name": "Look",
                    "type": "Value",
                    "id": "1936bbdb-100a-49c4-a6eb-e3cb685da120",
                    "expectedControlType": "Vector2",
                    "processors": "",
                    "interactions": ""
                },
                {
                    "name": "Fire",
                    "type": "Button",
                    "id": "dced442e-a2ef-4b35-ac03-ad9ea660af2c",
                    "expectedControlType": "Button",
                    "processors": "",
                    "interactions": ""
                }
            ],
            "bindings": [
                {
                    "name": "",
                    "id": "978bfe49-cc26-4a3d-ab7b-7d7a29327403",
                    "path": "<Gamepad>/leftStick",
                    "interactions": "",
                    "processors": "",
                    "groups": ";Gamepad",
                    "action": "Move",
                    "isComposite": false,
                    "isPartOfComposite": false
                },
                {
                    "name": "WASD",
                    "id": "00ca640b-d935-4593-8157-c05846ea39b3",
                    "path": "Dpad",
                    "interactions": "",
                    "processors": "",
                    "groups": "",
                    "action": "Move",
                    "isComposite": true,
                    "isPartOfComposite": false
                },
                {
                    "name": "up",
                    "id": "e2062cb9-1b15-46a2-838c-2f8d72a0bdd9",
                    "path": "<Keyboard>/w",
                    "interactions": "",
                    "processors": "",
                    "groups": ";Keyboard&Mouse",
                    "action": "Move",
                    "isComposite": false,
                    "isPartOfComposite": true
                },
                {
                    "name": "up",
                    "id": "8180e8bd-4097-4f4e-ab88-4523101a6ce9",
                    "path": "<Keyboard>/upArrow",
                    "interactions": "",
                    "processors": "",
                    "groups": ";Keyboard&Mouse",
                    "action": "Move",
                    "isComposite": false,
                    "isPartOfComposite": true
                },
                {
                    "name": "down",
                    "id": "320bffee-a40b-4347-ac70-c210eb8bc73a",
                    "path": "<Keyboard>/s",
                    "interactions": "",
                    "processors": "",
                    "groups": ";Keyboard&Mouse",
                    "action": "Move",
                    "isComposite": false,
                    "isPartOfComposite": true
                },
                {
                    "name": "down",
                    "id": "1c5327b5-f71c-4f60-99c7-4e737386f1d1",
                    "path": "<Keyboard>/downArrow",
                    "interactions": "",
                    "processors": "",
                    "groups": ";Keyboard&Mouse",
                    "action": "Move",
                    "isComposite": false,
                    "isPartOfComposite": true
                },
                {
                    "name": "left",
                    "id": "d2581a9b-1d11-4566-b27d-b92aff5fabbc",
                    "path": "<Keyboard>/a",
                    "interactions": "",
                    "processors": "",
                    "groups": ";Keyboard&Mouse",
                    "action": "Move",
                    "isComposite": false,
                    "isPartOfComposite": true
                },
                {
                    "name": "left",
                    "id": "2e46982e-44cc-431b-9f0b-c11910bf467a",
                    "path": "<Keyboard>/leftArrow",
                    "interactions": "",
                    "processors": "",
                    "groups": ";Keyboard&Mouse",
                    "action": "Move",
                    "isComposite": false,
                    "isPartOfComposite": true
                },
                {
                    "name": "right",
                    "id": "fcfe95b8-67b9-4526-84b5-5d0bc98d6400",
                    "path": "<Keyboard>/d",
                    "interactions": "",
                    "processors": "",
                    "groups": ";Keyboard&Mouse",
                    "action": "Move",
                    "isComposite": false,
                    "isPartOfComposite": true
                },
                {
                    "name": "right",
                    "id": "77bff152-3580-4b21-b6de-dcd0c7e41164",
                    "path": "<Keyboard>/rightArrow",
                    "interactions": "",
                    "processors": "",
                    "groups": ";Keyboard&Mouse",
                    "action": "Move",
                    "isComposite": false,
                    "isPartOfComposite": true
                },
                {
                    "name": "",
                    "id": "1635d3fe-58b6-4ba9-a4e2-f4b964f6b5c8",
                    "path": "<XRController>/{Primary2DAxis}",
                    "interactions": "",
                    "processors": "",
                    "groups": "XR",
                    "action": "Move",
                    "isComposite": false,
                    "isPartOfComposite": false
                },
                {
                    "name": "",
                    "id": "3ea4d645-4504-4529-b061-ab81934c3752",
                    "path": "<Joystick>/stick",
                    "interactions": "",
                    "processors": "",
                    "groups": "Joystick",
                    "action": "Move",
                    "isComposite": false,
                    "isPartOfComposite": false
                },
                {
                    "name": "",
                    "id": "c1f7a91b-d0fd-4a62-997e-7fb9b69bf235",
                    "path": "<Gamepad>/rightStick",
                    "interactions": "",
                    "processors": "",
                    "groups": ";Gamepad",
                    "action": "Look",
                    "isComposite": false,
                    "isPartOfComposite": false
                },
                {
                    "name": "",
                    "id": "8c8e490b-c610-4785-884f-f04217b23ca4",
                    "path": "<Pointer>/delta",
                    "interactions": "",
                    "processors": "",
                    "groups": ";Keyboard&Mouse;Touch",
                    "action": "Look",
                    "isComposite": false,
                    "isPartOfComposite": false
                },
                {
                    "name": "",
                    "id": "3e5f5442-8668-4b27-a940-df99bad7e831",
                    "path": "<Joystick>/{Hatswitch}",
                    "interactions": "",
                    "processors": "",
                    "groups": "Joystick",
                    "action": "Look",
                    "isComposite": false,
                    "isPartOfComposite": false
                },
                {
                    "name": "",
                    "id": "143bb1cd-cc10-4eca-a2f0-a3664166fe91",
                    "path": "<Gamepad>/rightTrigger",
                    "interactions": "",
                    "processors": "",
                    "groups": ";Gamepad",
                    "action": "Fire",
                    "isComposite": false,
                    "isPartOfComposite": false
                },
                {
                    "name": "",
                    "id": "05f6913d-c316-48b2-a6bb-e225f14c7960",
                    "path": "<Mouse>/leftButton",
                    "interactions": "",
                    "processors": "",
                    "groups": ";Keyboard&Mouse",
                    "action": "Fire",
                    "isComposite": false,
                    "isPartOfComposite": false
                },
                {
                    "name": "",
                    "id": "886e731e-7071-4ae4-95c0-e61739dad6fd",
                    "path": "<Touchscreen>/primaryTouch/tap",
                    "interactions": "",
                    "processors": "",
                    "groups": ";Touch",
                    "action": "Fire",
                    "isComposite": false,
                    "isPartOfComposite": false
                },
                {
                    "name": "",
                    "id": "ee3d0cd2-254e-47a7-a8cb-bc94d9658c54",
                    "path": "<Joystick>/trigger",
                    "interactions": "",
                    "processors": "",
                    "groups": "Joystick",
                    "action": "Fire",
                    "isComposite": false,
                    "isPartOfComposite": false
                },
                {
                    "name": "",
                    "id": "8255d333-5683-4943-a58a-ccb207ff1dce",
                    "path": "<XRController>/{PrimaryAction}",
                    "interactions": "",
                    "processors": "",
                    "groups": "XR",
                    "action": "Fire",
                    "isComposite": false,
                    "isPartOfComposite": false
                }
            ]
        },
        {
            "name": "UI",
            "id": "bf34dcea-fdd8-4295-ad01-37266f1797d0",
            "actions": [
                {
                    "name": "Navigate",
                    "type": "Value",
                    "id": "c43e2e9c-0ae8-4e70-8d14-01a95f642901",
                    "expectedControlType": "Vector2",
                    "processors": "",
                    "interactions": ""
                },
                {
                    "name": "Submit",
                    "type": "Button",
                    "id": "cead1ac3-7c8b-40f8-a558-7be7396ea8e1",
                    "expectedControlType": "Button",
                    "processors": "",
                    "interactions": ""
                },
                {
                    "name": "Cancel",
                    "type": "Button",
                    "id": "9a765b80-b8b2-4302-bb16-aa39f6cf533d",
                    "expectedControlType": "Button",
                    "processors": "",
                    "interactions": ""
                },
                {
                    "name": "Point",
                    "type": "PassThrough",
                    "id": "ac093dab-e7fe-4a5a-a49e-60e6ab2913b3",
                    "expectedControlType": "Vector2",
                    "processors": "",
                    "interactions": ""
                },
                {
                    "name": "Click",
                    "type": "PassThrough",
                    "id": "c991f600-11bb-4fc3-80f4-83fa54ed5e4d",
                    "expectedControlType": "Button",
                    "processors": "",
                    "interactions": ""
                },
                {
                    "name": "ScrollWheel",
                    "type": "PassThrough",
                    "id": "3b842bb9-595f-43dc-a6fa-2f7579c319be",
                    "expectedControlType": "Vector2",
                    "processors": "",
                    "interactions": ""
                },
                {
                    "name": "MiddleClick",
                    "type": "PassThrough",
                    "id": "8c80fa18-9c83-485f-84e0-a874b09710a6",
                    "expectedControlType": "",
                    "processors": "",
                    "interactions": ""
                },
                {
                    "name": "RightClick",
                    "type": "PassThrough",
                    "id": "4229843f-f609-48c0-a85d-dc4d368f3204",
                    "expectedControlType": "",
                    "processors": "",
                    "interactions": ""
                },
                {
                    "name": "TrackedDevicePosition",
                    "type": "PassThrough",
                    "id": "7403d54f-5f93-4864-a419-74021e9811f6",
                    "expectedControlType": "Vector3",
                    "processors": "",
                    "interactions": ""
                },
                {
                    "name": "TrackedDeviceOrientation",
                    "type": "PassThrough",
                    "id": "9f53d9c3-ff09-425d-a172-90232b99f8da",
                    "expectedControlType": "Quaternion",
                    "processors": "",
                    "interactions": ""
                }
            ],
            "bindings": [
                {
                    "name": "Gamepad",
                    "id": "809f371f-c5e2-4e7a-83a1-d867598f40dd",
                    "path": "2DVector",
                    "interactions": "",
                    "processors": "",
                    "groups": "",
                    "action": "Navigate",
                    "isComposite": true,
                    "isPartOfComposite": false
                },
                {
                    "name": "up",
                    "id": "14a5d6e8-4aaf-4119-a9ef-34b8c2c548bf",
                    "path": "<Gamepad>/leftStick/up",
                    "interactions": "",
                    "processors": "",
                    "groups": ";Gamepad",
                    "action": "Navigate",
                    "isComposite": false,
                    "isPartOfComposite": true
                },
                {
                    "name": "up",
                    "id": "9144cbe6-05e1-4687-a6d7-24f99d23dd81",
                    "path": "<Gamepad>/rightStick/up",
                    "interactions": "",
                    "processors": "",
                    "groups": ";Gamepad",
                    "action": "Navigate",
                    "isComposite": false,
                    "isPartOfComposite": true
                },
                {
                    "name": "down",
                    "id": "2db08d65-c5fb-421b-983f-c71163608d67",
                    "path": "<Gamepad>/leftStick/down",
                    "interactions": "",
                    "processors": "",
                    "groups": ";Gamepad",
                    "action": "Navigate",
                    "isComposite": false,
                    "isPartOfComposite": true
                },
                {
                    "name": "down",
                    "id": "58748904-2ea9-4a80-8579-b500e6a76df8",
                    "path": "<Gamepad>/rightStick/down",
                    "interactions": "",
                    "processors": "",
                    "groups": ";Gamepad",
                    "action": "Navigate",
                    "isComposite": false,
                    "isPartOfComposite": true
                },
                {
                    "name": "left",
                    "id": "8ba04515-75aa-45de-966d-393d9bbd1c14",
                    "path": "<Gamepad>/leftStick/left",
                    "interactions": "",
                    "processors": "",
                    "groups": ";Gamepad",
                    "action": "Navigate",
                    "isComposite": false,
                    "isPartOfComposite": true
                },
                {
                    "name": "left",
                    "id": "712e721c-bdfb-4b23-a86c-a0d9fcfea921",
                    "path": "<Gamepad>/rightStick/left",
                    "interactions": "",
                    "processors": "",
                    "groups": ";Gamepad",
                    "action": "Navigate",
                    "isComposite": false,
                    "isPartOfComposite": true
                },
                {
                    "name": "right",
                    "id": "fcd248ae-a788-4676-a12e-f4d81205600b",
                    "path": "<Gamepad>/leftStick/right",
                    "interactions": "",
                    "processors": "",
                    "groups": ";Gamepad",
                    "action": "Navigate",
                    "isComposite": false,
                    "isPartOfComposite": true
                },
                {
                    "name": "right",
                    "id": "1f04d9bc-c50b-41a1-bfcc-afb75475ec20",
                    "path": "<Gamepad>/rightStick/right",
                    "interactions": "",
                    "processors": "",
                    "groups": ";Gamepad",
                    "action": "Navigate",
                    "isComposite": false,
                    "isPartOfComposite": true
                },
                {
                    "name": "",
                    "id": "fb8277d4-c5cd-4663-9dc7-ee3f0b506d90",
                    "path": "<Gamepad>/dpad",
                    "interactions": "",
                    "processors": "",
                    "groups": ";Gamepad",
                    "action": "Navigate",
                    "isComposite": false,
                    "isPartOfComposite": false
                },
                {
                    "name": "Joystick",
                    "id": "e25d9774-381c-4a61-b47c-7b6b299ad9f9",
                    "path": "2DVector",
                    "interactions": "",
                    "processors": "",
                    "groups": "",
                    "action": "Navigate",
                    "isComposite": true,
                    "isPartOfComposite": false
                },
                {
                    "name": "up",
                    "id": "3db53b26-6601-41be-9887-63ac74e79d19",
                    "path": "<Joystick>/stick/up",
                    "interactions": "",
                    "processors": "",
                    "groups": "Joystick",
                    "action": "Navigate",
                    "isComposite": false,
                    "isPartOfComposite": true
                },
                {
                    "name": "down",
                    "id": "0cb3e13e-3d90-4178-8ae6-d9c5501d653f",
                    "path": "<Joystick>/stick/down",
                    "interactions": "",
                    "processors": "",
                    "groups": "Joystick",
                    "action": "Navigate",
                    "isComposite": false,
                    "isPartOfComposite": true
                },
                {
                    "name": "left",
                    "id": "0392d399-f6dd-4c82-8062-c1e9c0d34835",
                    "path": "<Joystick>/stick/left",
                    "interactions": "",
                    "processors": "",
                    "groups": "Joystick",
                    "action": "Navigate",
                    "isComposite": false,
                    "isPartOfComposite": true
                },
                {
                    "name": "right",
                    "id": "942a66d9-d42f-43d6-8d70-ecb4ba5363bc",
                    "path": "<Joystick>/stick/right",
                    "interactions": "",
                    "processors": "",
                    "groups": "Joystick",
                    "action": "Navigate",
                    "isComposite": false,
                    "isPartOfComposite": true
                },
                {
                    "name": "Keyboard",
                    "id": "ff527021-f211-4c02-933e-5976594c46ed",
                    "path": "2DVector",
                    "interactions": "",
                    "processors": "",
                    "groups": "",
                    "action": "Navigate",
                    "isComposite": true,
                    "isPartOfComposite": false
                },
                {
                    "name": "up",
                    "id": "563fbfdd-0f09-408d-aa75-8642c4f08ef0",
                    "path": "<Keyboard>/w",
                    "interactions": "",
                    "processors": "",
                    "groups": "Keyboard&Mouse",
                    "action": "Navigate",
                    "isComposite": false,
                    "isPartOfComposite": true
                },
                {
                    "name": "up",
                    "id": "eb480147-c587-4a33-85ed-eb0ab9942c43",
                    "path": "<Keyboard>/upArrow",
                    "interactions": "",
                    "processors": "",
                    "groups": "Keyboard&Mouse",
                    "action": "Navigate",
                    "isComposite": false,
                    "isPartOfComposite": true
                },
                {
                    "name": "down",
                    "id": "2bf42165-60bc-42ca-8072-8c13ab40239b",
                    "path": "<Keyboard>/s",
                    "interactions": "",
                    "processors": "",
                    "groups": "Keyboard&Mouse",
                    "action": "Navigate",
                    "isComposite": false,
                    "isPartOfComposite": true
                },
                {
                    "name": "down",
                    "id": "85d264ad-e0a0-4565-b7ff-1a37edde51ac",
                    "path": "<Keyboard>/downArrow",
                    "interactions": "",
                    "processors": "",
                    "groups": "Keyboard&Mouse",
                    "action": "Navigate",
                    "isComposite": false,
                    "isPartOfComposite": true
                },
                {
                    "name": "left",
                    "id": "74214943-c580-44e4-98eb-ad7eebe17902",
                    "path": "<Keyboard>/a",
                    "interactions": "",
                    "processors": "",
                    "groups": "Keyboard&Mouse",
                    "action": "Navigate",
                    "isComposite": false,
                    "isPartOfComposite": true
                },
                {
                    "name": "left",
                    "id": "cea9b045-a000-445b-95b8-0c171af70a3b",
                    "path": "<Keyboard>/leftArrow",
                    "interactions": "",
                    "processors": "",
                    "groups": "Keyboard&Mouse",
                    "action": "Navigate",
                    "isComposite": false,
                    "isPartOfComposite": true
                },
                {
                    "name": "right",
                    "id": "8607c725-d935-4808-84b1-8354e29bab63",
                    "path": "<Keyboard>/d",
                    "interactions": "",
                    "processors": "",
                    "groups": "Keyboard&Mouse",
                    "action": "Navigate",
                    "isComposite": false,
                    "isPartOfComposite": true
                },
                {
                    "name": "right",
                    "id": "4cda81dc-9edd-4e03-9d7c-a71a14345d0b",
                    "path": "<Keyboard>/rightArrow",
                    "interactions": "",
                    "processors": "",
                    "groups": "Keyboard&Mouse",
                    "action": "Navigate",
                    "isComposite": false,
                    "isPartOfComposite": true
                },
                {
                    "name": "",
                    "id": "9e92bb26-7e3b-4ec4-b06b-3c8f8e498ddc",
                    "path": "*/{Submit}",
                    "interactions": "",
                    "processors": "",
                    "groups": "",
                    "action": "Submit",
                    "isComposite": false,
                    "isPartOfComposite": false
                },
                {
                    "name": "",
                    "id": "82627dcc-3b13-4ba9-841d-e4b746d6553e",
                    "path": "*/{Cancel}",
                    "interactions": "",
                    "processors": "",
                    "groups": "",
                    "action": "Cancel",
                    "isComposite": false,
                    "isPartOfComposite": false
                },
                {
                    "name": "",
                    "id": "c52c8e0b-8179-41d3-b8a1-d149033bbe86",
                    "path": "<Mouse>/position",
                    "interactions": "",
                    "processors": "",
                    "groups": "Keyboard&Mouse",
                    "action": "Point",
                    "isComposite": false,
                    "isPartOfComposite": false
                },
                {
                    "name": "",
                    "id": "e1394cbc-336e-44ce-9ea8-6007ed6193f7",
                    "path": "<Pen>/position",
                    "interactions": "",
                    "processors": "",
                    "groups": "Keyboard&Mouse",
                    "action": "Point",
                    "isComposite": false,
                    "isPartOfComposite": false
                },
                {
                    "name": "",
                    "id": "5693e57a-238a-46ed-b5ae-e64e6e574302",
                    "path": "<Touchscreen>/touch*/position",
                    "interactions": "",
                    "processors": "",
                    "groups": "Touch",
                    "action": "Point",
                    "isComposite": false,
                    "isPartOfComposite": false
                },
                {
                    "name": "",
                    "id": "4faf7dc9-b979-4210-aa8c-e808e1ef89f5",
                    "path": "<Mouse>/leftButton",
                    "interactions": "",
                    "processors": "",
                    "groups": ";Keyboard&Mouse",
                    "action": "Click",
                    "isComposite": false,
                    "isPartOfComposite": false
                },
                {
                    "name": "",
                    "id": "8d66d5ba-88d7-48e6-b1cd-198bbfef7ace",
                    "path": "<Pen>/tip",
                    "interactions": "",
                    "processors": "",
                    "groups": ";Keyboard&Mouse",
                    "action": "Click",
                    "isComposite": false,
                    "isPartOfComposite": false
                },
                {
                    "name": "",
                    "id": "47c2a644-3ebc-4dae-a106-589b7ca75b59",
                    "path": "<Touchscreen>/touch*/press",
                    "interactions": "",
                    "processors": "",
                    "groups": "Touch",
                    "action": "Click",
                    "isComposite": false,
                    "isPartOfComposite": false
                },
                {
                    "name": "",
                    "id": "bb9e6b34-44bf-4381-ac63-5aa15d19f677",
                    "path": "<XRController>/trigger",
                    "interactions": "",
                    "processors": "",
                    "groups": "XR",
                    "action": "Click",
                    "isComposite": false,
                    "isPartOfComposite": false
                },
                {
                    "name": "",
                    "id": "38c99815-14ea-4617-8627-164d27641299",
                    "path": "<Mouse>/scroll",
                    "interactions": "",
                    "processors": "",
                    "groups": ";Keyboard&Mouse",
                    "action": "ScrollWheel",
                    "isComposite": false,
                    "isPartOfComposite": false
                },
                {
                    "name": "",
                    "id": "24066f69-da47-44f3-a07e-0015fb02eb2e",
                    "path": "<Mouse>/middleButton",
                    "interactions": "",
                    "processors": "",
                    "groups": ";Keyboard&Mouse",
                    "action": "MiddleClick",
                    "isComposite": false,
                    "isPartOfComposite": false
                },
                {
                    "name": "",
                    "id": "4c191405-5738-4d4b-a523-c6a301dbf754",
                    "path": "<Mouse>/rightButton",
                    "interactions": "",
                    "processors": "",
                    "groups": ";Keyboard&Mouse",
                    "action": "RightClick",
                    "isComposite": false,
                    "isPartOfComposite": false
                },
                {
                    "name": "",
                    "id": "7236c0d9-6ca3-47cf-a6ee-a97f5b59ea77",
                    "path": "<XRController>/devicePosition",
                    "interactions": "",
                    "processors": "",
                    "groups": "XR",
                    "action": "TrackedDevicePosition",
                    "isComposite": false,
                    "isPartOfComposite": false
                },
                {
                    "name": "",
                    "id": "23e01e3a-f935-4948-8d8b-9bcac77714fb",
                    "path": "<XRController>/deviceRotation",
                    "interactions": "",
                    "processors": "",
                    "groups": "XR",
                    "action": "TrackedDeviceOrientation",
                    "isComposite": false,
                    "isPartOfComposite": false
                }
            ]
        }
    ],
    "controlSchemes": [
        {
            "name": "Keyboard&Mouse",
            "bindingGroup": "Keyboard&Mouse",
            "devices": [
                {
                    "devicePath": "<Keyboard>",
                    "isOptional": false,
                    "isOR": false
                },
                {
                    "devicePath": "<Mouse>",
                    "isOptional": false,
                    "isOR": false
                }
            ]
        },
        {
            "name": "Gamepad",
            "bindingGroup": "Gamepad",
            "devices": [
                {
                    "devicePath": "<Gamepad>",
                    "isOptional": false,
                    "isOR": false
                }
            ]
        },
        {
            "name": "Touch",
            "bindingGroup": "Touch",
            "devices": [
                {
                    "devicePath": "<Touchscreen>",
                    "isOptional": false,
                    "isOR": false
                }
            ]
        },
        {
            "name": "Joystick",
            "bindingGroup": "Joystick",
            "devices": [
                {
                    "devicePath": "<Joystick>",
                    "isOptional": false,
                    "isOR": false
                }
            ]
        },
        {
            "name": "XR",
            "bindingGroup": "XR",
            "devices": [
                {
                    "devicePath": "<XRController>",
                    "isOptional": false,
                    "isOR": false
                }
            ]
        }
    ]
}