%YAML 1.1
%TAG !u! tag:unity3d.com,2011:
--- !u!114 &11400000
MonoBehaviour:
  m_ObjectHideFlags: 0
  m_CorrespondingSourceObject: {fileID: 0}
  m_PrefabInstance: {fileID: 0}
  m_PrefabAsset: {fileID: 0}
  m_GameObject: {fileID: 0}
  m_Enabled: 1
  m_EditorHideFlags: 0
  m_Script: {fileID: 11500000, guid: 66fbded5cc4153f46ae01cfc2b8639c9, type: 3}
  m_Name: Plains
  m_EditorClassIdentifier: 
  terrainName: Plains
  armorModifier: 0
  avoidModifier: 0
  movementCost: 1
